name;age;gender;postCode
Jemmy Latus;71;Female;36579
Jacqueline Massard;69;Male;11555
Esmaria Ibell;76;Female;81120
Gabbie Purveys;84;Male;14051
Carol-jean Gavozzi;45;Male;83042
Riley Fettis;64;Female;70664
Sergent Sterrie;79;Female;97667
Baxie Guitt;23;Male;22393
Carlynn Pentin;26;Female;21354
Janela Keeting;31;Female;58238
Garland Chaston;73;Female;19374
Aurelea Klesse;61;Male;48368
Ted Pendrey;54;Male;63857
Jacquelyn Broek;31;Female;99535
Jaye Caff;19;Female;80358
Robby Olech;38;Female;38049
Rolando Navarijo;59;Male;59951
Verney Kingsnoad;50;Female;19260
Hamnet Charker;19;Male;25631
Lucio Edgson;25;Female;37504
Hernando Nodes;43;Male;29511
Rollins Heed;42;Female;51356
Bambie Angeau;59;Female;50961
Nickie Jobey;47;Female;69261
Letta Saunper;27;Male;42027
Gabrila Abba;21;Female;12331
Benjamin Pitway;30;Male;83223
Alexio Danielis;68;Male;91577
Valle McCalum;59;Male;91024
Elston Rhelton;60;Male;20235
Kylila Bagshawe;45;Female;82727
Farly Pre;82;Female;41692
Hadria Augustine;62;Male;95140
Jobey Gregh;30;Male;11457
Molly Clemmensen;52;Male;64169
Vikki Cargo;80;Male;16218
Alick Bladder;40;Female;79365
Francisca Macartney;36;Male;64933
Maude Hudspeth;57;Female;13619
Cesya Hugh;81;Male;77678
Giulia McIndrew;44;Female;98718
Marvin McArtan;28;Female;67595
Margit Bach;30;Male;10032
Mirabelle McIvor;55;Male;32416
Carr Huttley;72;Female;55398
Berton Sute;30;Female;23160
Gus Knellen;45;Female;90309
Bartram Reyna;52;Female;19008
Ingeborg Dalyiel;81;Female;79743
Kittie Russo;47;Female;74215
Lorne Dodge;55;Male;64410
Evvie Layzell;29;Male;35028
Selle Sidon;61;Male;53481
Cindie Minister;39;Male;94267
Brigitte Godsal;41;Male;68427
Elly Eastup;42;Male;26768
Valida McCaskill;21;Female;23917
Kimmie Macieja;76;Male;11027
Cacilie De Ferraris;57;Female;46920
Reena Farris;25;Female;82323
Patti Nazareth;19;Female;76442
Blanch Lambregts;51;Male;30613
Wyatan Stampe;68;Male;16160
Hughie Daldan;56;Male;68170
Odille Bourgeois;20;Female;88249
Esteban Micheu;34;Female;33800
Thorn Darville;66;Male;92343
Shaylah Mooney;39;Male;44368
Diannne Rosten;32;Female;88958
Marlena Mulqueen;24;Male;67682
Sonnie Bartrop;81;Female;34378
Fairfax Grevatt;64;Female;91682
Thom Mattecot;83;Female;87487
Bax Steffan;51;Female;70273
Annissa Manilow;72;Female;89502
Gualterio Prettejohns;69;Male;50091
Gwenora Cannaway;35;Female;17237
Petronella Tirkin;71;Male;71084
George Greedyer;22;Female;86035
Normy Wealleans;61;Male;30073
Beatrisa Sancraft;80;Female;25821
Filmer Harce;81;Male;89561
Shelba Cockburn;69;Male;31754
Averil Brouwer;85;Female;83499
Dalli Wellsman;54;Male;77026
Nathan Tiffany;46;Female;75392
Dion Langsbury;43;Female;98840
Juliane Godwyn;26;Female;38255
Shalna Hulatt;44;Male;36452
Krystle Sabie;66;Female;61802
Tybie Scrafton;52;Male;25542
Trumann Villiers;36;Female;55593
Gerik Novik;20;Male;39423
Lisle Paffot;44;Female;76291
Leroi Jakubovicz;22;Female;62400
Weidar Fallowes;66;Male;86771
Tades Gilderoy;42;Female;10385
Ludovika Novelli;52;Female;61566
Meriel Ticehurst;60;Female;15020
Gracia Hawkin;31;Male;91109
Gay Gwillym;42;Female;32521
Hervey Larmet;36;Male;20822
Florrie Fetherston;81;Male;27750
Germayne Sedge;68;Male;14856
Sergeant Dimmne;34;Female;52231
Alessandro Tudge;74;Female;65552
Lynnelle Scad;67;Female;79133
Lyssa Mudge;57;Female;63337
Hunter Tabert;18;Female;75404
Odette Drynan;59;Male;46905
Orly Twoohy;75;Female;12366
Davis Shakesby;67;Male;81865
Jannel Livingstone;63;Male;26630
Breanne Yo;21;Male;66642
Ben Benoiton;32;Female;35276
Grazia Crosston;34;Male;61846
Luci Self;23;Male;70327
Josephine Siehard;60;Female;87107
Dedie Teenan;53;Female;49648
Binky McDirmid;33;Female;18289
Toinette Sworne;35;Male;62709
De Buckthorpe;60;Male;16646
Lyn Gullivent;25;Female;75514
Barn Coop;80;Female;19051
Isabelle Grzelczak;73;Female;76756
Albina Cliss;72;Female;95340
Luce Dreng;66;Female;57407
Egon Sibray;84;Male;19240
Millard Horsell;65;Female;61369
Burnaby Hedworth;37;Female;13165
Nani Vitet;56;Male;54999
Antoinette Ayree;24;Female;85000
Bancroft Chessil;27;Male;84304
Phillis Beverley;67;Male;71596
Kelci Phizackarley;81;Female;32280
Elisabeth Shier;77;Male;77488
Morly Donaher;78;Male;46976
Rudie Shatliff;71;Female;49168
Cyndie Webbe;62;Male;67385
Odille Cuerdale;34;Male;69035
Darsie Rosendale;23;Female;16480
Donella Luffman;29;Male;23227
Stanford Banting;31;Female;18452
Wylma Rubinfeld;56;Female;33378
Lynea Houtby;46;Male;37593
Maris Lethby;80;Male;97107
Gwenore Jursch;39;Male;11315
Aurelea Knoton;38;Female;41652
Angelina Versey;78;Male;97059
Coralie Scarce;70;Male;21628
Cherianne Bartosek;85;Male;78653
Babita Crowcher;76;Female;22125
Obie Regitz;65;Female;24505
Rania Oxborough;21;Female;24892
Emera Totterdell;74;Female;16301
Brunhilda Bowry;81;Female;62091
Min Stoke;45;Male;94624
Danit Sawford;20;Male;54709
Jillie Vasentsov;85;Female;39488
Tate Faint;19;Female;92927
Latia De Bruyne;59;Female;89374
Dinny Sleet;63;Male;22401
Merilyn Gronw;56;Male;58804
Cleve Barwis;61;Female;70659
Jonah Gawthorpe;18;Female;50587
Alex Tripe;79;Male;57573
Annadiane McAless;31;Female;23186
Jaquelyn Spurden;63;Male;53756
Vi Theodoris;77;Female;11670
Bertina Claire;70;Female;51139
Marga Cavill;22;Female;61097
Nike Bento;69;Male;41835
Dede Fuzzens;54;Male;13959
Linc Thompsett;74;Female;11102
Sergio Tewkesbury.;18;Male;76771
Thurston Twoohy;32;Female;55424
Georgena Gaywood;74;Female;98534
Gennifer Corbyn;72;Female;72434
Jana Bertouloume;41;Female;60453
Hortense Culshaw;32;Male;86405
Elysee Flescher;66;Female;29906
Neilla Stalley;43;Male;64082
Bryce Croal;27;Male;43036
Cecilla Dansken;39;Female;82922
Hashim Korba;74;Male;11292
Flo Martinyuk;56;Female;42159
Nichols Moscrop;77;Female;82501
Uriah De Santos;45;Female;39532
Sibley Nicklin;27;Male;79562
Waneta D'Aguanno;81;Male;99263
Salomon Pemble;64;Male;17846
Roman Marjoram;45;Male;65379
Letizia Mockes;23;Female;32651
Maitilde Barthram;27;Male;71723
Stanleigh Angell;18;Female;44360
Hastie Ottery;26;Male;25647
Marc Eadmeads;79;Male;81739
Augy Freund;45;Female;62180
Billie Real;76;Male;24106
Nikoletta Chmiel;26;Male;47377
Zia Darko;25;Female;66101
Karisa Grabiec;42;Female;78944
Chandra Speake;37;Male;73116
Malena Pauel;68;Male;65827
Reina Bate;71;Female;70455
Cherye Durgan;40;Female;94188
Editha Nussen;52;Female;23721
Zelma Gawke;41;Male;92323
Harmonie Zanardii;53;Female;35423
Vilhelmina Bignell;21;Male;27641
Nealon Sponder;41;Female;24595
Willie Mooney;18;Female;33329
Joel Glaves;60;Male;55772
Rubie Lamlin;56;Male;88184
Constancy Dufore;75;Male;89220
Jonah Demsey;34;Male;72689
Denny Keeble;45;Male;68440
Fletch Trayling;47;Female;33326
Lem Dentith;67;Male;24993
Berny Neilly;26;Female;23204
Dew Yakhin;36;Female;37784
Sibilla Pudden;34;Female;44656
Teresa Atheis;34;Male;16263
Berti Schaumaker;19;Female;63572
Arnuad Spilstead;85;Female;82095
Art Newport;66;Male;17870
Ricoriki Gueinn;66;Female;98543
Konrad Gannon;64;Female;75168
Cherianne Wanderschek;70;Female;22609
Pammi Offord;18;Female;50421
Jacquenette Pottery;40;Male;96042
Stefanie MacCrann;80;Male;44842
Gilligan Careswell;24;Female;65079
Gaynor de Voiels;26;Female;62039
Clementius Seine;28;Female;42134
Barnie Cudde;57;Male;45850
Kerk Northcote;22;Female;70943
Kenton Stickins;64;Male;32113
Barby Kennford;69;Male;74066
Harriette Renwick;27;Male;22904
Noell Klaassens;80;Male;57551
Claudette Carson;36;Female;90559
Kitti Marsham;53;Female;15657
Jessa Gobeaux;27;Female;50383
Annabell Kellet;71;Female;35908
Clarabelle Forder;78;Male;46341
Roshelle Kohrs;50;Female;28922
Caria Gaenor;50;Female;72761
Hadlee Raynor;63;Female;84392
Myrtia Kilgrew;40;Male;37806
Beryle Pluck;66;Male;72575
Mandie Signori;27;Male;30457
Seline McAlarney;28;Male;17007
Meris Saddleton;47;Male;70116
Milli Rickcord;67;Female;80652
Catriona Seagar;66;Female;34423
Brendis Pietroni;37;Male;96099
Christiane D'Aguanno;78;Male;57723
Kristina Abelovitz;36;Female;87105
Axe Divis;42;Male;27108
Jake Sliman;25;Male;74105
Justine Monckton;18;Male;64625
Phillipe Jeavons;75;Male;37443
Shirleen Batterton;57;Male;87696
Willabella Humphrys;67;Male;40037
Mallory Chrystal;35;Male;83617
Cory Esh;36;Female;11911
Gladi Brockwell;56;Male;34222
Sherilyn Willingale;56;Female;54530
Randee Purdey;72;Female;78387
Harmon Stieger;39;Female;30641
Neils Garforth;67;Female;78484
Corabel Strettle;67;Male;97166
Allianora Levecque;32;Male;93872
Sherie Vasiliu;46;Female;92486
Gabriel Brattan;34;Female;10906
Shay Rawood;57;Female;30269
Randi Knock;57;Male;75951
Osgood Edwardes;82;Male;73202
Fredrick Bruhnsen;48;Male;73563
Stanleigh Gainsbury;31;Male;38780
Mollie Caines;51;Female;96835
Alisa Courson;24;Male;84655
Xylina Brockwell;43;Male;45486
Anet Ferrillo;27;Female;49315
Francklin Bartolomeazzi;51;Male;59570
Annadiana Szymanski;85;Male;46681
Krystal Abbatucci;69;Female;21265
Saw Mozzetti;32;Male;70801
Kristo Tolotti;84;Male;25354
Putnem Brand;35;Male;77511
Isidor Elphee;63;Male;35659
Zaccaria Leith;63;Male;93391
Eadith Spelsbury;59;Female;26809
Erek Yell;21;Female;54615
Frances Davenall;35;Female;30644
Tiphanie Mussington;20;Male;23566
Sianna Bradden;31;Male;85555
Talya Hansel;83;Female;48321
Derrik Crinage;28;Female;54322
Kimmi Preskett;56;Male;33500
Lissy Sigward;68;Male;39805
Deborah Drynan;71;Female;66824
Kerby Bayston;84;Female;62494
Nappy Scneider;42;Female;43189
Yanaton Benaine;84;Female;12831
Jenica Pandya;57;Female;83654
Ami Peaker;28;Female;23089
Madella Habbal;35;Female;34655
Tome Carnell;64;Male;20731
Morena Brinded;34;Female;49456
Fionnula Conring;19;Male;72955
Sonya Maylor;51;Female;24345
Martino Dulton;18;Male;28171
Meier Titcumb;25;Male;52690
Arlee Pydcock;46;Male;31593
Cynde Buterton;49;Male;11221
Nina Nibley;66;Male;21052
Bengt Simoncini;75;Female;11778
Debi Beeden;76;Male;98197
Heall Hughland;25;Male;67295
Tabitha Lemme;78;Female;59927
Janaya Archell;18;Female;94683
Laurie Reinhart;73;Female;95503
Demetria Moquin;63;Male;34183
Ellette Gitthouse;58;Male;94694
Devlen Beslier;75;Female;47970
Audie Tebb;25;Male;18696
Cordie Lacer;37;Female;35613
Giselbert Beevis;70;Female;17644
Ema Geerdts;59;Female;28953
Kellen Jansky;31;Male;23085
Tatum Murgatroyd;64;Female;94778
Drusilla Cocher;24;Female;53740
Mikey Cottham;53;Male;28218
Valenka Denes;82;Male;22609
Pembroke Athy;61;Male;67858
Gram de Quesne;63;Female;93931
Cheri Slimme;75;Female;57769
Alix Wathall;81;Male;76403
Cammie Dalinder;48;Male;74131
Nollie Augustin;35;Male;10929
Konstanze Skahill;37;Female;75895
Dotty Print;37;Male;60525
Kirk McElrath;82;Female;63984
Debora Standeven;43;Female;57375
Berkley Jukubczak;73;Female;98273
Tierney Meece;68;Male;65581
Leonid Sollis;24;Female;83809
Brant Rawood;58;Male;18406
Gary Pasby;34;Male;46338
Rochella Hought;39;Female;46863
Kermy Burnham;63;Female;69061
Clyde Butterfill;29;Female;40842
Chiarra Phifer;63;Male;67089
Danny Spary;77;Male;63859
Wynny Loeber;43;Male;10549
Wilow McAw;76;Male;37897
Gwyn Bertelmot;40;Male;41504
Say Blacklidge;68;Male;49113
Cori Mobberley;32;Female;31443
Waldo Marquis;31;Male;72434
Logan Barhem;57;Male;60664
Gifford Trodler;41;Female;25140
Preston Hoys;38;Male;76685
Annabelle Coleman;82;Female;61765
Victor Veljes;20;Male;22091
Chiquia Clouston;67;Male;54752
Aubrey Kinnoch;78;Female;39981
Nathalie Oke;30;Male;64417
Magda Joseff;64;Female;38103
Coleman Rathborne;66;Female;37040
Di MacAlpine;76;Female;56112
Winfred Hacker;67;Male;68819
Clywd Lipp;67;Male;26533
Erin Crabb;25;Male;53888
Hephzibah Kerrane;58;Male;57950
Shina Corran;84;Male;17106
Elwira Dood;59;Female;62785
Elysha Pettengell;49;Female;84573
Selby Chiechio;70;Male;92142
Betsy Sindell;66;Female;15080
Giles Vedenyakin;50;Female;12659
Edwin Davley;54;Male;71465
Erik Caunt;56;Male;23633
Moselle Coldtart;48;Male;34118
Barron Beynkn;67;Male;29138
Tanney D'Errico;57;Male;97491
Renata Redier;66;Male;15360
Jaclin Drust;39;Female;32794
Faun Bugdall;61;Female;19504
Latia Bruckstein;31;Male;97956
Dolli Went;76;Male;44562
Marianne Fenner;45;Male;76124
Jamey Pople;53;Female;22858
Angelika Pirelli;32;Female;19110
Sven Dearden;25;Male;17552
Blisse Myerscough;27;Male;89426
Pippy Sudddard;82;Female;77739
Celinka Piscopo;50;Female;58163
Vicky Caveau;54;Female;29401
Lian Brick;54;Female;79089
Adriena Sprake;45;Female;82920
Cord Upex;27;Female;57603
Edvard Bertelet;20;Male;32420
Fax Meaney;75;Male;77217
Alissa McCullogh;61;Male;54043
Caritta Serjeantson;46;Female;30125
Selle Holgan;79;Female;90646
Ardath Skippon;49;Male;40063
Alain Gayden;31;Female;52565
Harbert Dahlborg;58;Female;72415
Tiebold Jerisch;24;Male;98407
Yancy Mogg;74;Male;59368
Jsandye Debrett;33;Male;56546
Shepperd McLarnon;40;Male;81398
Eal Dallimore;19;Female;10784
Alleen Atton;29;Female;34115
Zabrina Skellington;60;Male;86932
Iggie Zink;46;Female;40603
Correy Going;53;Female;52318
Anne-corinne Domney;45;Male;63913
Dalia Benneton;37;Male;33851
Wilburt Gration;75;Male;18370
Karoly Parlour;35;Female;47684
Tammie Ottery;82;Female;41325
Luz Crawford;37;Female;26534
Robina Attard;56;Male;82072
Craggy Benazet;76;Female;39996
Gwenni Oldmeadow;33;Female;47092
Griffith Trownson;50;Female;15117
Katya Aspin;23;Male;91632
Francisca Garlick;22;Male;58991
Waly Calleja;23;Male;77218
Vassily Gotcliff;39;Female;48746
Devy Rhucroft;22;Male;66778
Gabriello McTeggart;61;Female;62878
Maryann Sealove;30;Female;54550
Saunderson Askie;27;Female;92300
Jorie Purvey;37;Female;59010
Adelbert Antonomoli;36;Male;63063
Hyacintha Plowell;31;Male;85354
Valenka Chrismas;80;Female;10892
Clem Giuron;54;Female;99558
Joleen Blaxill;31;Male;56942
Perla Laughton;70;Male;55246
Ricca Steketee;38;Male;69868
Dinny Veighey;57;Male;37804
Linette Morefield;77;Male;73957
Tan Mantram;85;Male;31884
Fidelio Shepland;37;Male;12569
Reggis Blazej;64;Female;22653
Everard Gillicuddy;84;Male;20338
Josy Arnholz;75;Female;92850
Lock McLaine;57;Female;29452
Rachael Scatchar;51;Male;25477
Hyacinth Harsnipe;63;Male;54042
Rafi Bovey;52;Male;61836
Frazier Hukins;35;Female;58296
Adriano Alton;54;Male;19292
Ambrosi Wapplington;20;Male;43674
Merridie Handley;80;Female;11567
Gunilla Dugmore;65;Female;16588
Keir Dibbert;52;Female;29540
Tybalt Hallowes;31;Male;18806
Franchot Oldcote;61;Female;27963
Kip Kilian;70;Male;72575
Bondy Fudger;51;Male;37789
Sallyanne Kaveney;79;Male;73076
Charmian Purkess;73;Female;80747
Caesar Clunan;73;Male;55855
Lydia Karolyi;22;Female;69739
Simon Bonifazio;68;Female;96390
Kliment Mewes;62;Female;67778
Una Stott;65;Male;28080
Kalila Keynes;40;Female;81246
Edee Grove;22;Male;17488
Marla Ivashinnikov;34;Female;70203
Annissa Bowmaker;28;Male;70661
Harley McGougan;31;Male;43807
Meredithe Duggon;68;Male;79836
Garrek Yakubowicz;49;Male;26404
Pieter Barlie;37;Male;80201
Lucien Jacquet;42;Male;60775
Harriette Wisniewski;22;Female;38451
Xavier Batalle;81;Male;80608
Odelinda Hackworth;31;Female;28957
Erda Choldcroft;62;Female;27573
Camella Palfrey;53;Female;38299
Leif Oppery;57;Male;47725
Teddie Rohloff;59;Male;98882
Teddy Ayers;54;Female;34278
Shaun Sebley;27;Male;34638
Susie Nunson;68;Male;55234
Raynard Gozzard;74;Female;17063
Romonda Mundell;47;Female;56041
Josephina Brusin;48;Female;31789
Casey D'Costa;45;Female;31427
Domenic Peeke;42;Male;92926
Jareb Banister;71;Female;48310
Janice Sawfoot;20;Female;56985
Emlen Boni;53;Male;48462
Hadley Danter;27;Male;19631
Aubrette Drewery;79;Female;15808
Reena Etteridge;51;Male;56607
Cosmo McNirlan;22;Female;42806
Sylvan Panter;80;Male;16262
Sonja Berick;23;Male;21956
Blanch Eggle;70;Male;36635
Rogers Tewnion;27;Male;89250
Giffy Childerley;78;Female;39685
Katha Hawken;46;Female;48462
Leontyne Redmile;74;Male;69506
Calla Avrashin;40;Female;60267
Brenn Adnet;50;Male;26107
Jilly MacIver;56;Female;20000
Myrta Cowlard;53;Male;14491
Rochella Paskin;70;Female;95045
Lynett Job;22;Male;81627
Drugi Rizzolo;33;Female;97703
Domenic Lodden;24;Male;13969
Sofie Abisetti;38;Male;22452
Gabriellia Lympany;26;Female;23303
Ami Winters;59;Female;92514
Una Niset;39;Male;27875
Kendell Zipsell;20;Male;40626
Brendon Sondon;72;Male;80942
Phelia Goadby;55;Female;18390
Delores Murcott;67;Male;73625
Ericha MacFayden;33;Male;75613
Peirce Howlin;55;Female;72599
Perry Kornilyev;24;Male;55674
Barry Gorsse;57;Male;47307
Alexandr Rean;54;Male;64902
Skippie Ohrt;31;Male;61188
Wye Thorpe;83;Male;48978
Abran Skahill;80;Male;31806
Bren De Simoni;85;Male;94694
Ethelred Ertelt;70;Male;18806
Glen Risdale;23;Male;24261
Cristina Befroy;48;Female;46095
Arlin Stickney;48;Male;58236
Flem Barge;82;Female;24321
Kendell Glassford;82;Male;18064
Rosie Spellecy;57;Female;86706
Alleen Job;60;Male;95173
Ermina Bidgood;33;Female;11213
Dottie Itzcak;47;Female;45852
Harold Ruoff;37;Male;54733
Jodie Cholmondeley;30;Female;22523
Wye Garratt;24;Male;96295
Stacey Murcott;35;Male;82541
Ralina Trolley;19;Male;95010
Ursola Kordova;66;Male;12475
Gannon Gheerhaert;75;Female;76428
Boyce Witcher;23;Male;18595
Ora Whitebread;57;Female;29502
Stephine Rabbet;85;Male;74338
Fredia Emlyn;50;Female;48750
Marcella Geri;76;Female;37363
Bearnard Conford;82;Female;61562
Brandon Bowkett;36;Male;57777
Loella Kennelly;46;Female;82749
Carole Goulborne;48;Female;19928
Connor Maclaine;55;Male;95516
Julian Swindin;49;Male;96957
Stearne Cowthard;37;Female;90769
Kalie Kull;48;Male;99793
Christa Greenlees;64;Female;93455
Teador Prendergast;31;Female;28053
Fulvia Minall;55;Male;95676
Ginger Preist;47;Male;15292
Fern Coopman;34;Male;99773
Veronika Dailly;27;Female;49219
Xaviera Burdikin;29;Female;79858
Marjory Robardley;34;Female;45248
Chicky Lecordier;80;Male;43215
Ruthann Ballchin;30;Male;31331
Purcell Arnolds;20;Male;98391
Margaux Spanswick;39;Male;91000
Odelinda Schoales;62;Female;70688
Lise Cuthbertson;64;Female;35897
Olimpia Wasselin;55;Female;93649
Shari Baston;27;Female;48966
Shawnee Swigger;55;Male;38485
Coral Troup;69;Female;38707
Phineas Kinavan;59;Male;78513
Jobey Skudder;21;Male;27701
Chrissy Izkovicz;68;Female;88266
Hobey Simons;53;Male;65060
Barnard Barense;82;Male;47444
Caprice Dallas;27;Male;84462
Abram Allewell;38;Female;43492
Kip Cluer;72;Male;79908
Carlie Dobeson;31;Male;37302
Latisha McIllrick;34;Male;78798
Dieter Denisyuk;29;Male;87268
Adelaide Ambrogi;37;Female;97258
Sari Wigg;56;Male;97151
Annamaria Adhams;25;Female;60668
Torey Struttman;58;Female;29573
Cleavland Grahlman;61;Female;75100
Malanie Shillaker;73;Female;43480
Percy Meneer;61;Male;20964
Britta Izatson;79;Male;58865
Alix Iowarch;36;Male;15604
Kari Monkman;58;Female;62286
Natasha Lowndsborough;27;Female;78497
Idalina Ferneyhough;33;Male;92629
Laurel Hardwidge;23;Female;93649
Olenka Henighan;20;Male;96861
Yanaton Postans;59;Female;60912
Drugi Mainston;73;Male;69867
Kev Lorraine;18;Female;29425
Orv Palffy;18;Male;24591
Ninnette Penvarne;67;Female;41657
Tome Atkyns;61;Male;68531
Hercules Stannett;85;Female;22833
Jana Cristofori;21;Female;27427
Chad Kabsch;74;Female;84852
Dougie Jedrzejewicz;57;Female;77925
Tyrus Leet;52;Male;87604
Kerianne O'Sheeryne;41;Male;65963
Heindrick Shapero;18;Male;52935
Lindsey Muskett;56;Male;30184
Gerry Skeermor;62;Female;95881
Cleve Bremond;25;Female;81090
Cris Gawthrop;45;Female;65662
Marsh Ivatt;22;Female;99803
Justine Windows;38;Female;23648
Tabbatha Jordi;68;Female;36351
Kaspar Bilney;67;Female;31281
Kingston Disley;58;Female;32226
Celinka Burgill;80;Female;99637
Chadd Ros;51;Male;44327
Peggi Francesc;70;Female;58727
Zebulen Soall;18;Male;60829
Shelly Aartsen;33;Male;16720
Edie Jamot;45;Male;50547
Inesita Biasetti;55;Female;78267
Vito Aspden;81;Female;33650
Ree Eiler;72;Female;47604
Nerissa Griffitts;82;Male;79245
Juline Castaignet;23;Male;39715
Alissa Corde;55;Female;48581
Peyter De La Hay;40;Male;14223
Clywd Decroix;74;Female;86293
Harp Hanks;24;Male;30477
Gussie Conklin;31;Female;88253
Steffane Rimbault;51;Female;68973
Kathe Duer;65;Female;89678
Misty Massel;60;Male;54172
Al Kirrage;45;Male;20683
Cortie Cahill;23;Female;95954
Udall Ferrettino;67;Male;48672
Karena Kaysor;68;Male;76997
Thadeus Thackray;72;Male;41421
Barbe Brothwood;23;Male;24189
Albie Duffyn;49;Male;78329
Candy Shawel;56;Female;85637
Donn Benns;25;Female;48393
Jess Bartul;51;Male;20133
Kiley Ivanishin;22;Male;60255
Hilton Labrone;72;Male;33985
Ainsley Eagers;85;Female;17133
Nita Coil;35;Male;21682
Nataline Holbie;58;Female;86153
Ola Gascoyen;81;Male;18564
Whitney Spelwood;76;Male;61269
Shaylah Kennedy;59;Male;51136
Monro Menault;21;Female;18828
Emily Guttridge;49;Male;20144
Edithe Kopp;27;Male;48907
Robena Chattaway;54;Male;67469
Loy D'Elias;46;Female;47380
Marcie Castlake;48;Female;27678
Jacquetta Dewis;51;Female;42692
Trudey Whitecross;20;Female;19333
Eleonora Avo;22;Male;94067
Lil Pilcher;49;Female;67298
Cleo Gillbe;45;Female;96731
Aindrea Meeny;57;Male;55444
Adrian Muckeen;76;Male;96501
Drucy Lattey;76;Female;50769
Alford Ducarel;51;Female;15293
Alma Finlaison;41;Male;13740
Martin Triswell;76;Female;29567
Codie Klimecki;73;Male;83451
Diahann Mosley;26;Female;84956
Loree Dakhno;67;Female;29063
Moses Kubach;53;Male;26353
Erinn Date;21;Female;30272
Cordell Probbings;27;Male;94301
Alberta Connaughton;36;Male;24454
Jennette Glenwright;79;Female;80717
Abelard Litel;64;Female;77838
Henrietta Guyet;24;Female;98883
Giralda Hanbury;65;Male;65485
Leroi Balfre;70;Female;20164
Maximilianus Adamolli;72;Female;12860
Ivette Tivolier;49;Male;16971
Dinny Camier;80;Female;46781
Vlad Broddle;49;Female;12348
Tish Lukes;23;Male;36064
Constance Van Oort;84;Female;66084
Faustine Bleibaum;64;Male;18319
Marge Sheather;65;Female;92900
Robby Breadon;28;Female;68066
Marlene Brahams;66;Male;55682
Rhett Sheivels;45;Male;96818
Rana Van Der Walt;85;Male;21560
Cordelie Limb;25;Male;18023
Zabrina Bolzen;53;Female;50052
Nikoletta Cullinane;49;Female;98065
Hamish Gowdie;22;Female;71852
Arturo Frosch;69;Male;82652
Nikos Alwin;42;Male;56043
Lurline Harrison;18;Female;80613
Tabbi Terron;75;Female;40124
Kendrick Creevy;21;Female;67600
Boigie Gayton;62;Male;42768
Stefa Guerri;34;Female;32026
Shaine Exrol;46;Female;72148
Rickert Dole;75;Male;51614
Dodi Gash;27;Male;64604
Truda Mairs;28;Male;41828
George Abendroth;59;Male;73730
Haleigh Macieja;63;Male;58824
Janka Hawson;42;Male;81362
Tedi Burwell;52;Female;72422
Raddie Woodwing;56;Male;60948
Gayle Antosch;36;Female;89546
Vanya Pridgeon;64;Male;23260
Celesta Hyman;40;Female;76208
Kevan Hinksen;27;Male;50075
Suellen Dering;67;Male;12091
Gavin De la Yglesias;83;Male;37642
Mic Kryska;42;Male;96991
Lothaire Hearson;37;Female;12715
Iormina Shilling;80;Female;36149
Deanna Proven;36;Female;14201
Hamilton Hanhard;78;Female;66728
Fern Rodmell;65;Female;62909
Erma Dursley;51;Female;76765
Kanya Exeter;20;Female;62231
Gwenni Starmore;47;Male;42439
Kore Finker;46;Female;23604
Pearle Storah;34;Male;82321
Clemente Woodcroft;73;Male;86667
Jehanna Carrack;24;Female;92568
Ninette Vlasenkov;72;Male;45489
Zacharias Heelis;40;Female;76335
Bethanne Penman;51;Male;26562
Lissy Aldren;50;Female;87651
Tricia Bradnum;69;Male;76557
Nada Gocher;66;Male;46546
Lenore Collimore;42;Male;44886
Gwennie Barbosa;41;Female;28196
Nevsa Garside;70;Male;42044
Rollie Beacroft;30;Female;86273
Waldo Bawle;31;Female;52668
Essie Pipet;19;Female;22777
Penelope Decent;46;Female;85996
Ingar Noto;70;Male;81415
Alison Carson;63;Male;27454
Herc Markwell;18;Female;97089
Conroy Clifton;62;Male;11061
Florida Bratton;34;Female;73796
Jimmie Mishaw;62;Female;61260
Juanita Gaythwaite;57;Male;64154
Lyndsey Lotterington;47;Female;24667
Berke Vanini;84;Male;18799
Deni Garmey;81;Female;75116
Pall MacCall;73;Female;63424
Melva Jarratt;71;Male;79038
Tallie Logsdail;29;Male;15708
Ruthi Greetland;78;Female;70662
Devondra Braidley;85;Female;18800
Marcy Cowie;38;Female;31153
Carline Orvis;48;Male;63783
Oates Isacsson;37;Male;86428
Melinde Robertshaw;37;Female;24418
Shayna Titley;56;Male;34105
Geri Kach;85;Male;80267
Dar Tollerton;44;Female;62744
Beitris Goseling;41;Female;91169
Nero Kingsford;23;Female;80720
Clarette Date;73;Male;30526
Tarah Handyside;28;Female;67218
Sayre Peplow;19;Male;94797
Merna Snodin;48;Male;81994
Pierce Frie;51;Male;32305
Reuben Nye;85;Male;74948
Gar Caughey;22;Male;83031
Brand Ead;36;Female;88454
Eloisa Pikesley;83;Female;42098
Milena Agirre;73;Female;59430
Beryl Bentame;53;Male;39394
Constantina Dobel;57;Female;72444
Pierre Giggie;43;Female;74504
Angel Ferreras;37;Male;96995
Maxine Gilli;20;Female;39144
Maxi Dossantos;49;Male;30813
Deeanne Ramberg;62;Female;18564
Mariana Robilart;34;Female;91882
Sibbie Burston;71;Male;76175
Marmaduke Gresswell;79;Female;67341
Aretha Fandrey;40;Female;56735
Shandy Chatel;67;Female;57319
Hillard Veldman;62;Female;99237
Kendal Letham;45;Male;45670
Dex Pierrepoint;69;Female;97991
Noell Houlaghan;64;Female;44861
Caron Dainton;68;Female;63485
Guthry Gorke;23;Male;90797
Hakeem MacIlhagga;30;Male;39379
Mallory Dufer;49;Female;35404
Hatti Stringfellow;84;Male;57448
Valenka Dunkley;75;Male;61537
Ardine Vannet;80;Male;94252
Rahal Iacopetti;68;Male;44064
Jodi Windybank;43;Male;70867
Pavla Crutchley;39;Female;43838
Gino Kyteley;32;Male;91125
Dasi Abadam;75;Male;20653
Tammie Isoldi;28;Male;49261
Brande Sterman;27;Female;16157
Hesther Halmkin;20;Female;81055
Andonis Etteridge;82;Female;42710
Freda Otter;47;Male;52650
Julius Romeuf;66;Male;81473
Teddie Willetts;20;Male;47164
Aleece Veracruysse;32;Female;46358
Andre Russen;26;Male;11122
Ralina Trethowan;56;Male;12800
Leonerd Gerardi;61;Female;76278
Ellwood Mincini;55;Female;92972
Kilian Batisse;76;Male;86296
Fred Hechlin;53;Female;46522
Salome Giller;73;Female;37138
Alisun McKerron;81;Female;37484
Rosalie Poole;64;Female;30387
Broderic O'Duggan;41;Male;25312
Charlton Ennals;27;Female;13192
Shermie Newlove;82;Female;27510
Tamas Lapwood;35;Male;35347
Forrester Wesson;57;Male;84951
Marcela Raymond;22;Female;34903
Walden Dansken;40;Female;54684
Daisy Skittle;35;Female;20175
Kurtis Gabb;85;Female;12669
Jill Burdess;70;Male;68646
Hy Rustich;80;Female;62123
Bernette Chadd;22;Male;96028
Kippie Benzie;72;Female;41701
Ranee Juanes;41;Female;23735
Ellene Josovich;28;Female;13204
Larine Brettell;34;Male;84330
Mil Westbury;39;Female;88163
Mariam Miguet;70;Female;94142
Dolly Cowgill;30;Female;78925
Wendye Garett;37;Female;48131
Phyllis Iacovielli;65;Male;88446
Kirby Pates;79;Male;46647
Webb Ghirigori;54;Female;42439
Wrennie Brise;85;Female;69149
Hastings Lowles;22;Male;47339
Roi Trunks;27;Male;91753
Gunilla Senecaut;51;Male;81321
Had Turrell;28;Male;99234
Engracia Cund;69;Female;31274
Tillie Accum;70;Female;66889
Marika Cowmeadow;37;Male;44123
Loralee Voice;56;Female;79196
Norene Alecock;45;Female;71084
Wynne Brogini;46;Female;40550
Fabio Basketfield;72;Male;32860
Carline Simonelli;44;Male;64195
Willow Naerup;36;Female;16378
Matthus Pettiward;28;Female;76531
Gardiner Ruppert;34;Female;83299
Aubine Brunesco;67;Female;54306
Brandtr Marques;68;Female;37152
Darryl Penner;28;Male;55617
Fredric Dowden;35;Male;66546
Aida Schult;63;Female;52311
Jayne Durn;23;Male;75024
Daisi Ashford;73;Female;84320
Felipe Martellini;31;Male;18491
Charla Stenton;61;Female;98127
Quintin Goosey;26;Female;45210
Leoline Overel;73;Male;25104
Holly McEntegart;43;Female;58124
Arturo Ajam;51;Female;23035
Carla Kembrey;23;Female;76520
Terencio Montague;57;Male;18618
Merl Danforth;45;Male;90684
Della Alu;75;Male;28043
Jillayne Spellissy;73;Female;23358
Bert Watman;48;Male;48241
Belva MacTimpany;29;Male;17557
Con Grassot;37;Male;80391
Millard Petto;58;Male;23728
Isabeau Courteney;58;Male;39296
Rae Mabone;51;Male;54435
Redd Catlette;67;Female;86941
Giselle Niezen;41;Male;21034
Krisha Vanichev;29;Female;77550
Kaile Attwoull;70;Female;51482
Roda Dettmar;33;Female;44089
Tracey Presdie;82;Female;83815
Valencia Rawles;33;Female;93970
Red Worboys;41;Male;30552
Leonidas Borges;22;Male;70566
Ennis Minter;56;Male;31364
Aldis Buddle;18;Male;74244
Georgine Jewson;37;Male;52267
Olivero Hadgkiss;27;Male;72365
Corinna Wolters;61;Female;40552
Joan Marples;61;Male;87863
Jeanie Duckering;53;Female;33169
Osmund Madsen;33;Male;15707
Hyacinthie McMurthy;76;Male;10978
Adela Klehyn;74;Male;51539
Gerda Lugton;71;Male;31455
Brendan Kayley;23;Female;52353
Broddy Jouhan;37;Male;49139
Romonda Searles;62;Female;96860
Hervey Plaskitt;62;Female;28921
Randolf Sweeten;50;Male;55566
Friedrick Caret;24;Male;39813
Vickie Vaune;68;Female;50103
Kordula Parrott;81;Female;29012
Quinlan Sommer;81;Male;15809
Ferdinanda Gillice;46;Male;30763
Adore Giraudel;51;Female;94153
Tammie Passingham;81;Male;40046
Cole Sheward;39;Female;45231
Jacinda Kennicott;19;Female;77019
Carina Reisin;75;Male;85208
Demetri Feehely;76;Female;82585
Austin Digg;60;Female;90437
Prescott McGoogan;79;Female;23894
Robbin Mutton;56;Female;46197
Helyn Pizer;48;Male;85578
Melly Ivantsov;34;Male;59292
Sara Cough;74;Female;13680
Clem Samet;37;Female;88592
Georgianne Piggins;20;Female;74141
Diane McGreay;47;Female;65372
Vitoria Horribine;55;Male;48919
Melanie Meaker;69;Male;30436
Marika Beamiss;28;Male;54896
Nolie Nichols;45;Female;63467
Bernadene Yo;60;Male;76271
Marshall Bohje;83;Male;89872
Rozele Blackway;54;Female;83772
Vernor Hiner;32;Female;21552
Augie Ackerman;19;Male;58958
Trula Thorouggood;85;Male;93548
Frazier Scarce;26;Female;69343
Gherardo Geater;28;Male;27721
Susanne Feldfisher;44;Female;88197
Clara Wooffitt;85;Female;31184
Sondra Sibbons;25;Male;50283
Charlean Holstein;20;Male;65621
Lilas Cumes;40;Female;30322
Coleman Keizman;76;Female;19818
Rinaldo Patient;82;Male;55176
Godwin Keld;83;Female;85074
Fabio Kench;20;Male;95917
Eba Quirk;30;Male;21795
Pepillo Snoddy;50;Male;58751
Aland Spier;85;Male;84734
Goddard Alvarez;39;Female;88539
Cassie Hue;19;Male;20904
Gawain Laminman;49;Male;88097
Marcille MacSorley;36;Female;53002
Paulette Crennan;60;Female;75110
Gian Fretwell;75;Male;86264
Esta Maldin;26;Male;37646
Marna Climar;37;Male;60931
Rosa Simkovich;28;Male;43579
Midge Martin;22;Female;54720
Jeannette Meakes;41;Male;94611
Tull Landsman;71;Male;60912
Darcey Trout;68;Female;14990
Helaina Greenwell;29;Female;37800
Mabel Tennet;75;Female;22555
Indira Dabes;37;Female;58882
Hilton Blockley;85;Female;79754
Brandais Volcker;74;Female;19613
Kaycee Bessey;49;Female;98564
Dukie Abramzon;42;Female;86332
Chuck Mosedale;69;Female;36945
Danny Coldbath;44;Female;23643
Karlene Mackness;65;Male;31685
Karney Segges;73;Female;36818
Cleo Sunshine;72;Female;65379
Donnamarie Baskeyfied;47;Female;39509
Augy Minister;27;Female;24269
Olimpia Bywater;20;Female;36832
Rana Lambden;26;Female;88727
Artemas Fenelow;69;Female;33961
Xena Morando;23;Female;67872
Danila de Clerc;54;Female;24900
Akim Alderton;42;Female;36600
Jereme Cawte;57;Female;28099
Jesselyn Gisbey;34;Female;24267
Willyt Ledgister;57;Male;28517
Alexei Ranyard;55;Female;19042
Scot Bouldon;22;Female;35567
Kacy Pedrielli;56;Female;60489
Chet Catcherside;83;Male;63098
Hedvige Tufts;28;Female;23558
Gil Lewsy;24;Female;18865
Babita Brabbins;81;Male;68448
Susana Domange;76;Female;10060
Alie Snoddin;74;Female;62930
Daria Cosson;39;Female;78101
Corey Fullun;69;Male;47707
Addy Hemeret;44;Male;73997
Randene MacLleese;39;Male;32604
Port Escolme;32;Male;88364
Tanhya Estoile;84;Male;98233
Rollins Punchard;72;Male;23512
Eartha Danford;79;Female;27494
Caye Doody;28;Female;31879
Garnette Hundy;34;Male;79212
Rae Morrison;51;Female;42443
Tiff Capenor;75;Male;52603
Zacharia McKibben;75;Female;63869
Rem Acory;63;Male;66342
Chelsae Camelli;58;Male;93482
Nicholle Bloomfield;29;Female;70827
Seward Sissons;51;Male;24670
Cathrin Hatcliffe;72;Female;60272
Griff Scatchard;30;Male;78272
Nicole Northern;45;Male;60936
Jasmina Dowdell;31;Female;62620
Matthiew Cheetham;52;Male;50741
Emory Chinn;83;Female;14004
Bernie Dunnett;65;Female;42442
Fredrika Woolliams;81;Male;44266
Dian Claibourn;36;Male;91771
Shellysheldon Burburough;27;Female;25690
Inger Chessell;44;Male;82422
Karlotte MacNess;76;Male;90250
Francyne Winscom;44;Female;62979
Alfonse Greenrod;79;Female;93611
Othello Kelberer;81;Female;42091
Hartwell Westhofer;73;Female;83742
Arlette Redd;70;Female;18309
Jojo Baxill;27;Male;94081
Bertrando Sunley;78;Female;57268
Hermy Bentz;81;Male;90615
Hermia MacDiarmid;59;Male;83590
Renelle Haville;45;Male;18279
Fleming Trassler;51;Male;63080
Bary Millican;40;Male;23215
Nelly Woodsford;23;Female;50342
Matti Sullivan;50;Male;24260
Anabelle Sammon;47;Male;52020
Rik Joss;77;Female;14771
Fielding Zebedee;41;Female;83986
Shane Lead;42;Male;69543
Blisse Macbane;29;Female;76524
Breena Oty;20;Male;62954
Aurelea Huddleston;84;Female;78155
Michal Farrin;53;Male;45444
Gerrilee Canellas;36;Female;86578
Shelley Belloch;47;Male;72171
Kiah Cours;71;Male;17452
Henrie Cantua;30;Male;87704
Ursola Braunes;45;Male;45510
Levey Farnes;76;Female;39710
Inigo Woolacott;21;Female;47218
Beatriz Bahls;28;Female;79044
Valaria Gerner;60;Female;57039
Randy Melladew;31;Female;50451
Pietra Drewett;47;Male;36110
Constancy Grinov;76;Male;43417
Dorrie Beed;19;Male;14555
Gigi Baum;79;Male;71361
Vonny Taaffe;26;Female;37719
Codee Do;38;Female;55910
Gussie Linning;48;Female;81429
Conney Lecointe;34;Female;21290
Kaleb Kilby;64;Female;61092
Sigismund Fattore;47;Male;51479
Coral Curdell;50;Male;77717
Hilliary Defraine;38;Male;67465
Sutherlan Halle;68;Female;92274
Glynis Greenlies;76;Male;35347
Mortimer Habard;81;Female;18619
Jobi Merton;45;Male;46539
Pattie Cork;69;Female;38861
Allianora Kyrkeman;45;Male;17989
Orrin Mordecai;32;Female;14045
Haskel Birkinshaw;34;Female;80325
Stacy Fernez;26;Female;80404
Jourdan Joe;38;Male;89125
Emmott Itskovitz;28;Male;67101
Aloisia Freeberne;58;Female;25904
Julina Moorman;46;Female;13708
Tobi Ubank;62;Male;20331
Harv Geerits;36;Female;34605
Tyrone Dyka;81;Male;10899
Avigdor Minchella;82;Male;77609
Bil Croose;32;Male;30006
Berta Haken;70;Female;71130
Cal Shitliffe;82;Female;13247
Quillan Serck;39;Female;54785
Fowler Raggles;70;Male;62934
Gertrudis Barker;54;Male;29769
Si Latehouse;71;Male;40417
Reggi Dmitriev;33;Female;78644
Kate Iscowitz;79;Male;72739
Averell Blackster;25;Female;92054
Loni Riccioppo;28;Female;87403
Pammy Hagstone;41;Female;55727
Audy Treadwell;41;Male;90155
Genni Cruise;82;Male;20814
Dyanna Insley;85;Male;26736
Rochell Whitehall;65;Male;56201
Weidar Sidey;44;Female;84640
Nat Marchello;22;Male;16432
Jaye Bolin;30;Female;35298
Morse Charlick;62;Male;58948
Perle Gundry;45;Female;78612
Taylor Ivatt;18;Female;47590
Ignacius Lutas;73;Female;17286
Ferd Tourmell;21;Male;74816
Galvin Strettell;76;Female;42082
Kassandra Elrick;75;Male;70238
Creigh MacDonogh;65;Male;35920
Rubetta Libri;58;Female;46475
Lawry Brownstein;27;Male;47688
Paulina Rosenzveig;63;Male;88733
Claudian Hamson;33;Male;68965
Tracey Bealton;75;Female;87304
Blondell Lilliman;21;Female;71039
Kiley Skrzynski;63;Male;47456
Hettie Kleinerman;33;Male;22647
Joane Antrum;83;Male;73619
Shirl Schubert;37;Female;56271
Cullen Geelan;51;Female;40320
Aksel Feitosa;27;Female;32674
Garnet Rolstone;66;Female;11301
Holli Bartolomucci;61;Female;30507
Giulio Dorset;59;Female;56109
Kevina Garretts;70;Female;10135
Ulick Wardle;71;Female;44011
Yasmeen Howchin;27;Female;96782
Kittie Gosse;55;Male;97866
Goddart Biasi;80;Female;14735
Nike Benardeau;51;Female;98662
Pattie Fancutt;32;Female;26924
Daryle Huikerby;37;Male;59799
Rod Proudman;72;Female;53043
Cordelie Alessandone;81;Male;14712
Roxanna Tampion;34;Female;77296
Hurleigh Dobrowolski;62;Female;23924
Had Rafe;44;Female;63043
Dollie Castellino;73;Male;35839
Sheree Anwyl;43;Female;97979
Tye Batt;85;Female;26105
Ripley Burde;23;Male;82534
Mozes Massimi;70;Female;96108
Roby Lovel;78;Female;31598
Catriona Reynish;32;Female;33744
Riobard Charrington;52;Male;99844
Any MacGahey;61;Female;45792
Care Setterington;76;Male;24530
Pearle Youson;65;Female;95389
Gerrilee Goodram;30;Female;92156
Linda Loade;58;Female;39336
Ivy Rosell;42;Male;98022
Fanchette Chasson;53;Male;99080
Hanna Busswell;52;Male;74889
Joletta Yeude;85;Male;29065
Donny Bowton;74;Female;62542
Gaspar Dibson;82;Female;77075
Breena Plewright;29;Male;87997
Sile Heinl;69;Female;90003
Concettina Kuscha;79;Male;44589
Ron Vany;30;Female;36714
Ruggiero Elvidge;54;Male;10461
Dode Heathwood;31;Female;34367
Avivah Staggs;60;Male;29147
Sara Scurfield;82;Male;13980
Amii Sharpley;61;Male;78665
Jo ann Benge;74;Male;51529
Tanya Heindl;27;Female;55164
Rosamond Dayment;55;Female;11578
Corbin Denyukin;31;Male;47217
Danya Grouen;36;Female;71039
Juliana Humerstone;33;Female;28303
Consuelo Walsom;41;Male;67328
Paulo Hamfleet;68;Female;89649
Sherry Magnus;28;Female;87524
Florentia Houndesome;30;Male;45172
Arron Powling;19;Male;78315
Rusty McCole;81;Male;54655
Nelli Biffin;20;Female;64620
Gigi Bockett;26;Male;61009
Wye Aicken;69;Female;10484
Anica Bellee;40;Male;23937
Stuart Giovannilli;46;Female;80499
Ezmeralda Penley;78;Male;49923
Tasia Leber;25;Male;36307
Katerina Levey;65;Male;31286
Kiley Cuncliffe;28;Female;96557
Laurence Doumerque;83;Male;85473
Braden Baxstair;82;Female;42746
Tricia McCarl;20;Male;49463
Layney Vaney;47;Male;93009
Kakalina Sparling;68;Male;89555
Camilla Luigi;38;Female;17827
Christabel Boud;52;Male;38835
Helenka McSkin;75;Female;39758
Vaclav Reedman;62;Male;48905
Brandais Ganford;37;Female;54297
Becky Coghill;40;Female;56993
Austin Ivers;74;Female;89617
Stavro Peabody;74;Male;50767
Marget Deegin;33;Female;87741
Andy Balls;74;Female;17719
Bent Chaldecott;75;Male;14691
Neall Vahl;73;Male;71961
Noelle Thebeaud;47;Male;81590
Marga McMychem;19;Female;34350
Anthiathia Capelin;46;Female;24776
Kathie Gouldsmith;48;Female;48376
Ximenes Lynde;36;Female;15488
Bentley Kinavan;21;Female;91602
Kikelia Mourgue;23;Female;35283
Hannis Sparrowhawk;34;Female;53766
Nicoline Bergeon;50;Male;25811
Hanson Fawke;28;Female;31126
Darius Heitz;42;Female;14061
Mackenzie McEachern;84;Male;40103
Francoise Brownrigg;53;Male;20771
Elton Rays;65;Male;93783
Meghann Otter;78;Female;98378
Laurena McLaine;50;Male;98763
Bambie Bonar;70;Female;45085
Zora Dellit;62;Female;77932
Frans Dorrity;79;Female;31441
Clementius Breewood;82;Female;32819
Marion Frostdick;80;Female;93968
Kellen Almond;44;Female;14825
Jade Rowcliffe;47;Male;22920
Kaila Jouannot;78;Male;50247
Frannie Hubbold;40;Male;40115
Inigo Spincks;22;Female;32642
Antonius Wakenshaw;76;Female;32951
Patin Vamplus;68;Female;51553
Clayton Pregal;76;Female;86068
Mimi Barthorpe;71;Female;33979
Carolann Stennard;45;Female;33954
Hort Hamber;18;Male;35701
Arri Boullin;58;Female;44591
Riki Kinsley;39;Female;15817
Marie Greswell;21;Male;66556
Loella Guly;47;Male;35440
Arley Fillingham;46;Female;63252
Lindy Lehmann;29;Female;32806
Dani Broseke;71;Male;19414
Magnum Mahony;47;Male;94798
Georgina Playdon;44;Female;31704
Bertram Heald;75;Female;97622
Mella Camel;77;Male;17513
Leanora Grinikhin;82;Female;24333
Raye Worsnip;22;Female;41206
Frankie Dyball;56;Female;91312
Yancey Tame;50;Female;84864
Tamma Torrisi;80;Male;28940
Kendell Heyball;39;Male;19228
Sloane Edgerton;79;Male;85911
Wilhelm Birrane;53;Male;27605
Darell Screaton;58;Female;23527
Had Brounfield;25;Male;18308
Dominique Trumble;56;Female;49743
Stanislas De Domenicis;46;Female;20341
Karyn Fellis;66;Female;12225
Shantee Aikman;46;Female;49942
Hettie Canas;52;Female;12221
Min Waggitt;52;Female;64724
Nonie Synnot;32;Male;37880
Trstram Edgworth;51;Male;95052
Paige Blaxland;77;Female;32713
Elroy Cartlidge;19;Male;73412
Gage Janik;44;Male;85061
Hobey Livingstone;83;Female;51444
Rori Brisson;81;Female;58150
Emmie Baughn;62;Male;96218
Jandy Jakuszewski;19;Female;38526
Merry Wiffield;66;Male;27079
Bamby Linger;55;Female;44655
Dana Verma;69;Male;21406
Koressa Walkley;66;Female;84178
Loleta Macguire;25;Male;26806
Wain Dalgardno;25;Female;11830
Zsazsa Hallward;80;Male;50392
Conn Runnicles;45;Male;60812
Alma Olyet;25;Female;23871
Daryle Whittet;60;Female;53919
Martie Yeardsley;71;Female;32137
Saxon Cherrison;24;Female;99108
Guilbert Rubinovitch;61;Male;42670
Carroll Boule;35;Male;75407
Caro Chritchlow;33;Female;29565
Babbie Grundey;74;Male;56447
Ernesto Ferreo;42;Female;17997
Darin Sugarman;41;Male;91462
Odell Baldock;81;Female;49056
Pamela Oene;50;Female;21128
Rhoda Cordsen;44;Male;72404
Benton Kuhndel;85;Male;96738
Jerrie Eubank;38;Male;86808
Betty Connachan;71;Female;19272
Wilton Pleavin;33;Male;57551
Brock McIlory;63;Male;62761
Genvieve Duchenne;42;Male;44008
Rowena McKelvey;36;Male;81841
Yoko Corish;50;Male;34199
Bourke Lamy;73;Female;50904
Demetria Gambrell;68;Female;47077
Caty Christofle;28;Male;85013
Raddie Hennemann;62;Male;15218
Jada Timby;44;Male;18740
Ricky Birbeck;59;Female;31218
Dame Stedmond;51;Male;96589
Regen Cullingford;69;Male;72325
Dorelia Riddiough;64;Male;82559
Emery Le Maitre;33;Female;10328
Doti Truwert;72;Female;39368
Teodoro Hamm;18;Male;87638
Dory Hyrons;82;Female;40609
Nanette Halpine;19;Female;41289
Eddy Stebbings;31;Female;52434
Lenora Layburn;41;Male;84178
Lyssa Rosenschein;36;Female;24861
Orelee Lobley;31;Female;46016
Robinet Amburgy;18;Female;95023
Odetta Bittlestone;58;Female;75539
Rozamond Learie;85;Male;18749
Sapphire Hudless;23;Female;97734
Rafaellle Gobeaux;77;Male;53478
Tony Aronoff;73;Male;86856
Kent Haney;51;Male;29723
Bentlee Campana;18;Male;62020
Harriet Fergie;62;Female;98883
Camel Grishin;39;Female;35111
Jose Kenworthey;70;Male;50718
Julee West;56;Female;28488
Hallsy Flewett;79;Male;46189
Emalee Grellis;83;Male;10561
Boycey Tapscott;26;Male;32987
Kimmy Dufton;77;Male;43425
Gaye Harverson;23;Male;91834
Lani Kernaghan;49;Female;75627
Rhodia Nanuccioi;35;Female;13071
Anthe Nibley;26;Male;86718
Anissa Jeandel;29;Male;43342
Ardith Rapin;47;Female;65484
Pryce Dilliway;75;Female;66214
Kennith Baumber;55;Female;63536
Daryle Hughes;29;Male;61692
Samuele Mastrantone;22;Male;69005
Christian Rentenbeck;29;Female;53598
Delainey Congreve;27;Female;42545
Garrard Ferneley;49;Male;79188
Hildegarde Harcourt;20;Male;95203
Belita Lange;81;Female;35543
Noby Vasyuchov;34;Female;43023
Katharina Ash;42;Male;55467
Wyatt Sebrook;56;Female;38896
Salvatore Guenther;32;Female;83336
Laughton Maier;33;Male;50106
Anthe Suero;81;Male;75494
Olivette Moulson;46;Female;76329
Bridie MacDunlevy;19;Female;17312
Avie Champion;56;Male;21827
Mersey Thridgould;80;Female;24842
Emma Ambrogioni;60;Female;40230
Ardath Dalbey;18;Female;88183
Sindee Carslake;79;Male;91293
Wainwright Fritschel;27;Female;35573
Jannel Oldmeadow;66;Male;30128
Rhody Matchett;29;Male;31451
Nathalie Mallindine;75;Male;37810
Ruddie Potts;31;Female;91596
Sibeal Bucher;75;Male;42146
Elora Caley;39;Female;50586
Shirl Gibbetts;61;Female;16130
Bliss Livingston;52;Female;44113
Gorden Adnett;49;Female;21159
Reinaldo Burgill;55;Female;20302
Tommy Pohls;18;Male;35625
Alf Slyme;23;Female;49364
Konstantine Curgenuer;20;Female;95310
Kali Tremonte;68;Male;17371
Marylin Shoppee;80;Female;74970
Frederick Newcomen;70;Female;72701
Amalea Heineken;33;Male;75285
Nanette deKnevet;39;Male;83561
Virgina Fogden;81;Male;59564
Cornelia De Brett;32;Female;29824
Erinna Dowrey;59;Male;96881
Daphene Helks;24;Male;43523
Weber Heavy;83;Male;97561
Mikol Josebury;55;Male;88828
Matias O'Riordan;77;Female;59742
Dasie Neeve;32;Female;70543
Marilee Wantling;55;Female;55626
Manolo McKinney;76;Male;44973
Celestyna Wilman;18;Female;27963
Michal Stirtle;76;Female;34815
Skelly Hatley;66;Male;22071
Burg Goddman;53;Male;66018
Ricardo MacLoughlin;52;Male;24282
Flossy Catchpole;64;Male;30681
Kylie Alger;71;Male;59368
Byrom Stilldale;76;Male;50164
Debra Winsome;73;Female;59781
Shalom Giacubo;31;Male;87073
Samson Eastlake;66;Male;52744
Kessia Esherwood;47;Female;17372
Klement McKimmey;46;Female;65993
Clemmy Tanzer;64;Male;69613
Guillema Storror;42;Female;11165
Josephina Dring;50;Male;72304
Elizabet Durno;79;Male;61545
Jonathan Deddum;65;Female;49847
Gun Sember;31;Male;81094
Aristotle Sevier;72;Female;94829
Gabriella Peoples;71;Male;34095
Padgett Barbery;85;Male;90438
Joelle Bowskill;55;Female;87297
Felice Quodling;43;Male;89754
Minne Paslow;18;Male;18991
Wells Meaders;36;Male;10926
Vinnie MacSorley;30;Female;63511
Venita Smeeton;30;Male;49953
Ganny Ketteringham;67;Female;17350
Kakalina Cottesford;26;Female;68061
Devonna Wall;29;Female;11456
Sibyl Rohloff;52;Male;45907
Jori Marder;51;Female;38958
Bastien Greatrakes;83;Female;62067
Sylvia Fehners;32;Male;51719
Janie Rangell;36;Female;60304
Angus De Bischop;48;Female;22084
Winifield Hanford;20;Female;19382
Thea Gambrell;71;Female;23069
Holden Trorey;74;Male;53186
Yolanthe Meadowcraft;56;Male;32840
Eilis Sesons;66;Male;22337
Rodolfo Aveling;47;Female;70502
Kareem Cockle;39;Female;77025
Tobey Mundle;80;Male;21104
Omar Gori;29;Male;54100
Tedi Abbie;37;Female;42986
Ermentrude Langrish;78;Female;89702
Randie Bartosinski;29;Female;50644
Gay Dunnaway;36;Male;54737
Suzi Izakson;53;Female;83424
Irena Burnage;42;Female;12169
Shawna Shier;78;Male;19162
Thurston Wickwarth;64;Female;50941
Glen Pauletti;19;Female;27841
Devin Markham;20;Male;94531
Thorny Crystal;52;Male;72544
Juliette Deerness;41;Male;59431
Bartholomew Imeson;23;Female;24599
Arielle Jahns;80;Female;23257
Timmie Lougheid;72;Female;42680
Erminie Stoney;47;Male;33700
Pietro Riccio;62;Female;28501
Lenora Baglow;76;Male;30760
Susann Krug;46;Male;63946
Washington Ornells;50;Male;38833
Arleen Graeme;22;Female;93340
Parry MacAlroy;67;Male;51614
Harland Gillfillan;42;Female;60125
Row Karpfen;77;Female;31389
Wayne Manvelle;53;Female;98424
Kipp Gras;29;Female;35508
Koressa Lundy;25;Female;72440
Perice Lewis;78;Female;38826
Kally Lambis;23;Male;52132
Glenn Gulliford;37;Female;67285
Skippy Bewley;24;Female;23580
Franz Proske;31;Male;58405
Theo Popple;79;Female;76788
Arabel Peltzer;18;Male;61077
Lea Hadcroft;51;Female;50689
Erda Telega;70;Male;17642
Wilhelmine Huby;51;Female;91167
Martie Nutbean;18;Female;78315
Pooh Klimp;21;Female;44051
Garry Truswell;24;Male;54186
Walliw Derisly;58;Male;35931
Nicolea Bruce;59;Female;20473
Edna Boxe;51;Female;24762
Melesa Waumsley;71;Female;17465
Archibold Coverdill;75;Male;56756
Sibyl Rains;18;Female;23607
Lane Farquar;82;Female;75738
Nikola McGlue;64;Female;88683
Adriana Wooder;38;Female;51586
Domenic Breche;61;Male;99998
Dame Pollett;50;Female;62785
Genevieve Lalevee;33;Female;40567
Chas Behninck;82;Female;26206
Candace Guilloneau;44;Male;63928
Webster Futty;80;Male;68619
Tate Hampstead;74;Female;48286
Marlon Lober;64;Male;28797
Yehudit Spottswood;28;Female;84091
Hillary McCoughan;80;Male;80429
Bibbye Godfree;30;Male;46562
Anetta Geeraert;29;Male;26724
Codie Ivashinnikov;61;Male;53127
Brianna Belverstone;70;Male;45308
Corrine Stamper;44;Male;32385
Aloisia Meininger;53;Male;70055
Nobie Syson;78;Female;74568
Gerrilee Gleed;29;Female;71659
Brad Rivelin;27;Male;62618
Carmel Sacher;41;Female;15434
Jackqueline Bice;20;Male;47191
Alicea Danielou;69;Female;37743
Wynne Coutthart;38;Male;90723
Kata Baumaier;31;Female;27116
Alard Eskrigg;39;Female;71283
Franky Trenaman;37;Female;72463
Stan Puig;47;Female;31356
Sharai Ciottoi;23;Female;23856
Kirbie Buchanan;26;Male;92603
Lem Shemmin;81;Female;57378
Pail Jossel;53;Female;10901
Gabriele Cubuzzi;46;Male;44820
Garvy Dogg;58;Female;10832
Cloris Benfell;27;Male;26127
Reinaldo Barritt;32;Female;10221
Elvera Wrettum;57;Female;66087
Tarrah Toulamain;63;Female;79465
Nestor Ishaki;85;Male;34303
Toddy Esom;20;Female;33127
Tilda O' Kelleher;82;Male;87388
Glynn Paton;28;Male;85606
Sande Badwick;62;Female;73786
Gerrie Eilhersen;73;Female;74619
Randie Mallalieu;59;Male;56749
Sylvester Fisk;34;Male;28598
Torrie Ashbe;61;Female;14648
Tymothy McGee;55;Male;92391
Celina Budgett;27;Female;49872
Morgen Castille;41;Female;75035
Pascale Gunnell;61;Male;85234
Krishna Lang;18;Female;60574
Eda Snape;55;Male;52380
Benedict Clute;50;Male;46800
Ivan Brierton;77;Male;85127
Linette Maingot;56;Female;31846
Bastian Boardman;48;Male;58893
Bili Tomowicz;46;Male;57538
Shaina Horribine;46;Male;17043
Emmerich Wotherspoon;25;Male;16933
Angelia Pauler;51;Female;56267
Pearline Schutt;65;Male;44451
Bartie Dyble;85;Female;49955
Kinny Gamblin;27;Female;70812
Rosalie Lammert;74;Male;36667
Bryana Lapham;30;Male;59385
Danette O' Bee;78;Female;31112
Aile Lowth;71;Female;40652
Berna Binnell;48;Male;74777
Jermain Sheilds;48;Female;45814
Elga Barbrick;54;Male;50001
Suzann McIlwraith;57;Female;50155
Danica Goodby;78;Male;57707
Anne-marie Halford;41;Male;41498
Wolf Lorrain;29;Male;89306
Sada Seers;33;Male;73348
Errick O' Mullan;81;Female;69849
Rozelle Greaterex;18;Female;95408
Esteban Jayume;72;Female;77065
Mal Gilham;27;Male;44950
Lizzie Gomby;67;Female;33766
Elga Madeley;67;Male;92248
Kerrie Attree;44;Female;91725
Sibilla Bonnell;50;Male;61519
Vachel Napoleone;58;Male;10921
Isidor Parren;56;Female;61286
Cleveland Cloney;33;Male;39245
Harmonie Enefer;22;Male;50039
Willi Voak;58;Male;75167
Demetra MacAlester;46;Male;59801
Ilysa Rampage;68;Male;96546
Roi Feather;52;Male;91378
Fina Burleigh;67;Male;86338
Alverta Gulliford;75;Female;30136
Goldy Plaschke;18;Male;66047
Kaspar Rodson;32;Female;86862
Stacee Varga;19;Female;62283
Flory Kearney;53;Male;80780
Delano Kelemen;20;Female;79463
Gypsy Master;62;Male;14757
Celeste Alcido;58;Male;12691
Phillipp Rosenschein;27;Male;79426
Kathy Darrel;30;Female;97470
Dulcia Floweth;34;Female;71476
Henrietta Hue;64;Female;35056
Chen Nertney;53;Male;77139
Garrard Prue;83;Male;27140
Darla Corre;43;Male;89958
Ree Marlin;19;Female;92723
Ermanno Tutchell;63;Female;98836
Genevieve Deveral;81;Female;33945
Aggi Byrom;52;Male;28902
Jerrylee Milnthorpe;74;Male;78463
Missie Pregal;34;Female;83042
Shaylyn Suffield;55;Male;12227
Gail Yeld;65;Male;99417
Ainslie Calderon;72;Female;40370
Clerc Dovidian;84;Male;77840
Silas Wybron;27;Female;51193
Jana Jakes;72;Male;35687
Georgianna Folkerts;48;Male;94962
Terese Benard;39;Female;33002
Consuela Brightey;72;Male;21428
Cullie Danihel;68;Male;21828
Clayborn Brusby;61;Male;87499
Ursuline Grinyov;49;Male;44766
Malory Bertin;27;Male;96661
Ceciley Aspall;74;Male;87503
Eyde Kimbley;57;Female;19572
Jorgan Kinnard;71;Male;64346
Sal Chitter;70;Male;92289
Libbi Bristoe;70;Female;52835
Winthrop Lytle;41;Male;37454
Gerrie Quiney;63;Female;45500
Cory Ealles;73;Male;96715
Ezmeralda Archibold;84;Female;51874
Kacey Revelle;81;Male;78087
Trip McCuaig;82;Female;69556
Randolph Dufall;39;Female;62003
Maegan Hews;67;Female;86387
Carlita Clyant;31;Male;55014
Idalia Lisciandri;31;Male;85130
Jodie Ashwin;49;Female;36864
Marie-jeanne Sapena;72;Female;25723
Andonis Foister;60;Female;45679
Knox McCaskill;74;Female;51264
Rona Fifoot;85;Male;62135
De Olland;82;Female;27737
Judye Pillington;37;Male;30625
Tobey Durtnel;46;Male;37073
Tadio Lutwyche;37;Female;93367
Bone Orrobin;21;Female;97106
Marcy English;42;Male;15088
Mal Fibben;75;Female;97134
Rhett Pycock;84;Female;19582
Shaylyn Slobom;54;Female;34280
Malvina Middleweek;66;Male;47982
Mellisa Netherwood;68;Male;39380
Cosmo Cafferty;68;Female;29654
Bel Duffyn;25;Male;13305
Daren Rumney;70;Female;23853
Wenonah Letford;34;Male;65704
Ingaberg Holberry;36;Female;62229
Henri Casbon;62;Male;85424
Cobb Lockery;84;Male;56872
Julianne Storah;53;Female;55858
Gayle Fawdrie;61;Male;60094
Hart Royall;22;Female;38507
Zola Clemits;33;Female;55410
Alie Klimowski;40;Female;23121
Jessee Duguid;19;Female;46764
Marlee Cowell;36;Female;69921
Bettina Golby;31;Female;29840
Flss Hallbord;23;Male;88993
Baron Petteford;21;Male;76642
Deerdre Scriven;77;Male;82059
Junie Gaunson;50;Female;43625
Alleyn Olech;69;Female;72346
Yank Keher;74;Male;55037
Selma Siaskowski;58;Female;47152
Austin Ferrone;47;Female;76189
Shane Branchett;36;Female;69993
Bartholomeus Drewell;75;Female;95944
Maurise Clendening;30;Male;84865
Marcille Hakonsson;18;Male;17284
Eric Ilyinski;53;Female;38608
Hali Grundle;41;Male;16118
Felisha Grahlman;76;Male;36003
Saxon Muscat;84;Female;31863
Gus Spykings;38;Female;15515
Atlanta De Bruijne;46;Male;21451
Hermina Thibodeaux;29;Female;40548
Sybil Gomar;68;Male;30701
Filberte Burwell;23;Female;14099
Tristam Hailston;46;Female;54483
Jacinda Learmond;69;Male;32101
Moselle Todhunter;47;Male;60654
Lamar Cansdill;34;Male;28416
Mallory Streader;18;Male;20918
Evey Lygo;70;Male;53164
Madelyn Badini;51;Female;82173
Brnaba Cater;60;Female;63694
Richard Leak;20;Female;73544
Petey Yaneev;77;Female;90313
Lowrance Boden;31;Female;72168
Cheslie Prendeguest;57;Male;50523
Davie Rosenblath;23;Male;89695
Merrick Tuerena;46;Male;78800
Leontine Hobben;57;Female;62686
Rosemarie Vigietti;69;Female;74316
Rickie Larne;43;Male;72993
Ardene Morlon;77;Male;73380
Pierette Jahnig;69;Male;89443
Denny Postan;77;Male;47616
Saundra Wassell;53;Female;47251
Atlante Bengough;42;Male;72270
Joye Falshaw;18;Female;95916
Dominique Masterson;33;Female;82084
Benetta Halshaw;51;Male;58668
Rick Dellenbach;21;Male;84533
Richy Deek;18;Male;44872
Gilburt Cardero;73;Female;68003
Denny Perrelli;74;Male;48235
Katrina Bartalini;81;Female;31586
Audy Van Zon;43;Male;15462
Lib Moffat;26;Male;20294
Ellsworth Berrey;50;Male;60526
Iolande Yersin;58;Female;29105
Rachel Aymer;18;Female;33668
Mata Linzey;50;Female;87614
Sandie Damerell;62;Female;89322
Mario Parlott;44;Female;81484
Nev Kinzel;28;Male;90054
Jamal Vedyashkin;54;Female;98612
Octavius MacCarrane;65;Female;51520
Eran Antoniak;19;Female;11229
Renata Hundey;25;Female;92025
Charmain Broun;68;Male;63490
Raina Ryton;29;Female;86729
Gaylord D'Avaux;43;Female;14581
Gennifer Wildes;48;Male;47055
Reuben Henricsson;34;Female;49159
Vinnie Bikker;42;Male;69505
Faunie Burchall;43;Female;26815
Merry Rilston;44;Female;98683
Lidia Braund;75;Male;81799
Valery Cluderay;85;Male;43124
Phedra Bredes;81;Female;67892
Dani McKerlie;43;Male;78912
Gabriella Gossage;38;Female;25399
Roy Canas;66;Female;38346
Ethelyn Doyley;35;Male;56369
Cesar Hainey`;41;Female;63516
Linell Bartles;20;Female;73085
Richardo Burthom;52;Female;18073
Thelma Tieman;71;Male;76691
Carroll Foreman;77;Female;11030
Cherice Martelet;64;Male;86437
Benetta Doyland;35;Female;81834
Kent Mityashin;59;Male;61510
Donny Renzullo;62;Male;22518
Marv Done;18;Female;43431
Debera Bonner;38;Male;81900
Genvieve Hares;82;Male;10397
Jeanne Marchington;75;Male;52685
Corabella Simonsson;23;Male;88876
Anselma Farloe;69;Female;52766
Hilario Mackison;77;Female;44621
Marisa Cisar;47;Female;50540
Mohammed Pic;44;Male;55882
Moritz Campes;51;Female;15842
Natala Wasteney;48;Male;77122
Gypsy Rodders;84;Female;80331
Early Kellet;71;Female;95378
Mandy Gerckens;47;Female;59250
Neale Jansema;44;Female;94192
Jordan Aspenlon;56;Female;40116
Amelia Mitkov;76;Female;19375
Shandy Bernhardi;30;Male;59556
Anthia Sketchley;52;Female;61557
Mike Snarie;23;Male;36054
Eugine Arkill;22;Male;82125
Joane Lewisham;42;Male;37604
Clara Sach;32;Male;92955
Olivette O'Cahill;23;Male;36767
Miran Tales;57;Male;51795
Cally Forlong;84;Female;40421
Julian Bent;79;Male;65306
Chlo Huff;60;Male;14746
Inigo Tebald;43;Male;83624
Rod Le Sieur;45;Male;18777
Wynnie Yashin;51;Female;20073
Tine Feild;18;Female;29988
Alika Guard;26;Male;71811
Lorinda Vowels;32;Female;19905
Leonhard Kitley;62;Female;44940
Melisandra MacLachlan;74;Male;64862
Shadow Rubertelli;70;Male;31933
Sharai Dewhirst;83;Male;24956
Robina Tunna;83;Female;70774
Xylia Cancutt;76;Male;33150
Patric Castille;81;Male;15244
Terrijo Sharpless;46;Male;59994
Cyndy Henzer;38;Male;49617
Denney Zorener;84;Male;88666
Manolo Ferronet;47;Female;28559
Orella Jestico;80;Female;18095
Rhianna Murcutt;37;Female;50146
Kalli Burden;39;Female;87769
Costanza Reader;54;Female;82672
Carson Jerome;28;Female;33048
Milena Sarfati;51;Male;97998
Alexina Vondrasek;82;Female;76996
Lyndel Seneschal;31;Male;52434
Abey Bradtke;53;Male;97585
Alic Bebb;78;Male;13095
Lynnea Derrett;65;Male;62455
Magda Ertelt;24;Male;36161
Marline Raubheim;21;Female;28656
Cobbie Davidi;37;Male;74621
Wald Love;70;Female;71462
Pierre Austing;80;Male;30356
Sharl Smithe;37;Female;27646
Michail O' Brian;24;Female;99755
Diane Nagle;19;Male;60815
Kellsie Edleston;32;Female;23601
Jessamyn Hatcher;32;Female;40809
Keriann Greave;68;Male;80217
Marion Cattrell;78;Male;21242
Chet Britch;23;Male;16348
Clarey De Blase;81;Female;50759
Timothy O'Dwyer;31;Male;59936
Gael Maddison;30;Male;69977
Lewiss Norledge;19;Female;12978
Katherina Brownlie;59;Male;37768
Patten Landrieu;49;Female;52068
Hillery Gabby;67;Female;67826
Abigael Priddis;30;Male;81196
Wilbur Bottini;28;Female;56691
Cristal Shales;32;Female;76340
Kermy Brechin;59;Male;23603
Justinn Fanshaw;34;Female;87687
Noell Dyte;76;Female;91435
Stephani Devereux;26;Male;63119
Lionello Oguz;27;Female;20871
Lynnelle Croal;30;Female;21370
Vivianne Wornham;54;Female;30636
Free Stockton;29;Female;26566
Marcy Izakof;77;Female;82980
Loleta Delion;81;Male;78624
Thedric Itzkovich;30;Male;16573
Leah Morritt;28;Male;71673
Alameda Beeble;76;Male;17903
Merrel Abraham;49;Female;27406
Roch Luety;43;Male;15307
Phillida Purves;70;Female;85261
Kaylee Stranahan;40;Male;10026
Kirby Delacoste;45;Female;83337
Dyna Losemann;23;Male;73213
Matthus Dominichetti;64;Female;37032
Brannon Pache;76;Female;26058
Merralee McGeady;48;Male;56655
Eustace MacPeake;35;Male;80465
Codee Grigoletti;67;Male;60886
Raychel Magson;22;Female;85647
Libby Somerville;42;Female;46894
Eben Vasyukhichev;19;Male;44849
Tierney Hauxwell;22;Male;74691
Melisse Kerwood;48;Female;79458
Eden Summerlee;43;Male;44579
Gustaf Goose;70;Male;60843
Chancey Esom;19;Male;59598
Meta Gehrts;22;Female;76740
Ollie Burder;58;Male;91362
Damara Castel;56;Female;56088
Hilary Younge;46;Female;87228
Vincent Donativo;59;Female;91602
Tessy Mendenhall;60;Female;28927
Tressa Drabble;55;Female;46585
Reid Sima;82;Male;35598
Chicky Phillins;57;Female;86973
Deanna Skechley;44;Female;27741
Rhea Stansall;25;Male;16636
Pooh Cherry;56;Female;50742
Lauryn Vogt;56;Male;39088
Dierdre Gumbley;44;Male;97143
Northrop Gerleit;28;Female;90414
Cecile Sarjeant;64;Female;82767
Milty Rosita;40;Female;45318
Karney Murthwaite;32;Male;76782
Englebert Daniello;83;Female;85292
Georas Ducket;71;Female;32762
Noemi Le Cornu;71;Female;20772
Gene Turpin;61;Male;23325
Ariana Poytress;70;Male;22177
Callie Jacobs;34;Male;16417
Bryan Speedy;27;Female;59449
Adrianne Tabbernor;79;Male;69721
Graham Blasing;28;Female;89251
Reagen Bignold;35;Male;28496
Elias Taile;47;Male;19269
Jennie Bydaway;30;Male;72555
Carie Fenwick;26;Female;15338
Gabriel Radoux;82;Female;66686
Lloyd Gergely;72;Male;38569
Gayel Couves;84;Male;11000
Nathalie Hellcat;49;Male;76994
Haslett Meadway;51;Female;89331
Godfree Fronks;35;Male;95218
Aurore Noden;53;Female;40199
Bard Slowly;45;Male;14718
Kristyn Mesant;56;Female;58166
Leontine Covey;48;Male;87981
Meredith Cotty;22;Male;99103
Lon Dossettor;25;Male;93637
Cheslie Cousans;47;Male;33285
Hughie Dunridge;75;Male;17401
Lacy Winspear;54;Female;80395
Chryste Roubottom;74;Female;57526
Brigitte Grog;70;Male;16137
Joey Lawleff;68;Female;88858
Enoch McAviy;53;Male;44196
Emmery Sich;24;Female;47774
Allis Owthwaite;85;Female;63126
Misti Burchess;30;Male;41257
Barbey Blackmore;68;Male;73426
Shepard Couvert;75;Male;30207
Linea Shout;52;Female;40625
Raven Wabb;30;Male;86566
Tamiko Rickert;76;Male;65379
Row Gatrell;40;Female;94095
Breanne McGuffog;53;Female;30222
Allyn Muncaster;55;Male;59550
Welbie O'Cannovane;26;Female;65900
Gabriella Delamere;27;Female;63953
Hyacinth Gettings;60;Male;64328
Byrle Eddisford;69;Female;64762
Luce Blaskett;85;Male;52903
Brianne Rook;64;Female;76896
Yevette Beach;71;Female;57243
Nerty Fogden;26;Male;67108
Gawain Bartholomew;38;Male;80069
Barbey Duxfield;26;Male;50471
Louella O' Quirk;42;Female;95677
Giustino Edgeson;23;Male;85055
Cindi McKissack;43;Female;74357
Edy Sheavills;60;Female;64921
Lorelei Morales;31;Female;49033
Kent Stapleton;61;Female;82451
Selina Larkin;26;Male;78774
Englebert McChesney;80;Female;26144
Trenna Cutting;81;Female;85602
Stanford McCaughren;70;Female;90270
Beverley Ballentime;18;Male;99722
Amory Lutwyche;24;Female;97902
Tybie Matteuzzi;32;Male;92524
Bern Comfort;39;Female;62423
Mendy Dewsbury;58;Male;28587
Madelaine Gellan;30;Female;64393
Clerc Trembley;43;Female;34437
Galina Ismirnioglou;30;Male;98073
Gilligan Mapam;69;Male;58860
Neron Pennycock;31;Male;92015
Annetta Krollman;29;Male;99655
Marcelia Smails;74;Female;77137
Bord Linklet;35;Female;13808
Tandi Bjorkan;61;Male;18777
Lars Dulany;22;Female;51609
Diandra Montfort;84;Female;61605
Sebastiano Ulyet;78;Female;56056
Agna Figgins;44;Male;42402
Maddy Hayzer;77;Male;45031
Gill Shillito;55;Male;52926
Culver Evert;56;Male;98451
Pru Pichan;33;Male;74590
Pegeen Nelthropp;45;Female;83948
Theodoric Dymock;26;Male;20380
Riccardo de Najera;45;Female;74094
Cirillo Lough;84;Male;53905
Shela Peddowe;58;Female;43012
Garey Bachs;55;Female;75570
Randy Staton;57;Female;59736
Therine Duddy;28;Male;64736
Yardley Mewis;61;Male;65474
Des Matitiaho;39;Female;17909
Berget Rolles;21;Female;29592
Marissa Okell;64;Male;59538
Ardenia Mateu;39;Male;66927
Joceline Belloch;54;Male;75446
Willdon Kubczak;35;Male;53128
Lacey Alexandersson;18;Male;39506
Gaultiero Jewer;56;Female;31787
Hildagarde Ramel;62;Female;50816
Nealson Jankiewicz;45;Female;66738
Caryl Whytock;70;Male;68786
Kaylee Kick;42;Male;10878
Saw Huerta;42;Female;38564
Denyse Lacroix;46;Female;26706
Byram McKinlay;60;Female;80689
Federico Harlick;52;Male;22607
Alix Catteroll;64;Male;77048
Bradley MacConnel;46;Male;13107
Anet Josselsohn;67;Male;71281
Job Shalcros;66;Female;27259
Anselma Gillian;41;Male;83476
Flore Maben;31;Male;15807
Constantia Darey;80;Female;85934
Dorthy Learmont;34;Male;76390
Blondell Swatland;35;Male;78893
Glynn Chelley;40;Male;18143
Jennilee Pharo;80;Male;36101
Daphene Rixon;44;Female;73959
Tiffany Tenney;48;Female;42768
Henrie Baser;30;Female;43796
Krishnah Willoughby;64;Female;52025
Teriann Davenall;28;Female;45848
Harald Curme;29;Female;38776
Karilynn Puffett;25;Female;80794
Karine Giraudoux;63;Male;13506
Chas Tenney;65;Male;26483
Gwynne Quidenham;34;Male;67399
Ephrayim Cartwright;39;Male;34888
Georg Slee;21;Female;41191
Margette Farr;57;Male;39757
Celisse Saffle;19;Male;16167
Elyn Brian;55;Male;42780
Bancroft Huckleby;34;Female;25754
Ardyth Piller;41;Female;24794
Karlotte Bagguley;30;Male;47192
Emerson Latus;60;Female;11516
Weber Mathys;30;Male;48166
Rowland Biggen;70;Female;82044
Misti Drewet;78;Male;38483
Starla Shuxsmith;65;Female;61061
Kaye Cordelet;56;Male;25282
Bren Jumont;42;Male;85536
Dyna Strathearn;45;Male;31762
Teri Lampkin;56;Female;69647
Ilyse Diment;47;Male;91827
Timmie Rogeron;39;Male;56921
Durand Arents;53;Female;15795
Bryon Cavee;22;Female;50952
Hastie Spiteri;43;Male;29213
Haily Jellico;75;Male;76153
Sue Mendenhall;70;Male;55895
Ferdinand Paladini;72;Female;84871
Gwyn Goodee;32;Female;50668
Rawley Cumbers;22;Male;99704
Marianna Rathke;56;Female;35811
Silvio Ferraresi;36;Female;18370
Zeke Sterndale;47;Male;58404
Anetta Brandsma;64;Male;78032
Connie Ginnety;19;Male;67205
Marcellus Desborough;34;Male;18522
Ira Dowker;33;Male;57698
Robin Pere;44;Female;85995
Gayle Peake;56;Female;41868
Lincoln Carolan;47;Female;19463
Aldis MacCleay;45;Male;80591
Larry Ruger;58;Female;69428
Etheline Blackeby;58;Male;39080
Chevalier Clementucci;59;Male;45965
Sheelagh Livick;29;Female;89267
Bink Himpson;33;Female;64215
Vilma Durrand;76;Male;66648
Kirstyn Garard;85;Male;73750
Dominga Liven;29;Male;60870
Elston Bickerdike;56;Male;30639
Valeria Hathway;20;Female;18975
Vic Petrelli;70;Male;89511
Rosemary Innocent;23;Male;52579
Theodosia Schiefersten;58;Female;26873
Wynny Ivasyushkin;42;Female;75758
Cleon Haisell;33;Female;96914
Maynard Reisenberg;75;Female;94093
Hedvige Yorkston;67;Female;72405
Alfredo Boots;43;Male;21746
Job Dubber;62;Male;68713
Charyl Latore;29;Male;88853
Mirella Barthod;41;Male;20307
Page Charity;43;Male;16046
Onofredo Meadley;62;Male;82200
Phip Heningam;39;Female;95691
Robinette Tomblin;85;Male;59157
Tirrell Bosley;84;Female;60440
Karalynn Ivakin;28;Female;54495
Dottie Chattell;72;Male;65583
Devland Stearns;76;Female;99641
Rand Lorkins;28;Male;54440
Lanita Greenset;75;Male;46883
Arte Stidever;80;Female;32002
Constantia Tatlow;20;Female;71706
Liana Laughton;77;Female;81632
Graehme Ludgrove;60;Male;44158
Derrick Menelaws;82;Female;97754
Mag Skepper;83;Female;98461
Paolina Kief;20;Female;15585
Forster Shotton;18;Male;51928
Franciska Turfs;39;Male;83734
Nobie Badder;83;Female;30743
Lancelot Johanssen;67;Male;21570
Amabelle Hasnip;49;Female;37076
Dominique Gerram;62;Male;27307
Otho Dusting;22;Male;26000
Andra Stoffel;80;Female;39102
Seymour Notley;49;Male;16623
Menard Forrestor;84;Male;27401
Cherilyn Simes;58;Female;29151
Lezley Franzolini;73;Male;61317
Kristofer Harnwell;67;Male;43732
Shanda Colebrook;47;Female;38767
Alyss Corrado;33;Female;69128
Graig Caldroni;76;Male;26837
Rosabel Steel;37;Male;39733
Emelita Warrier;50;Male;45744
Randell McGillacoell;43;Female;43388
Agathe Clemes;36;Male;66596
Bary Grzelczyk;54;Male;82403
Harrietta Lepard;71;Female;22581
Umberto Gleasane;83;Female;70299
Eddie Nawton;23;Male;51568
Richy Dykins;30;Male;47051
Kelley Howsego;72;Female;50776
Marie-ann Siggs;56;Female;98593
Gordan McCafferty;36;Female;80338
Concordia Izaks;58;Female;67555
Alard Temby;71;Male;63548
Ethan Cull;30;Female;56278
Sibel Klimes;73;Male;15427
Heather Cardenas;19;Female;70654
Leonard Cuddehy;66;Male;53545
Orlando Briston;64;Male;60281
Clarinda Koles;82;Male;37147
Munroe Bern;56;Female;72596
Honey Kibblewhite;64;Female;19176
Judi Bordes;59;Female;31988
Felice Duberry;70;Female;20242
Florry Knellen;69;Female;11983
Audi Wallett;22;Male;46080
Myron Spadelli;62;Male;69492
Zedekiah Bleasdille;76;Female;39282
Nike Queen;52;Female;20242
Anette Orrah;18;Male;89289
Oliy Moat;52;Female;93168
Catrina Wyse;36;Male;22925
Ronnie Veryard;45;Male;89459
Gabriele Leyre;66;Male;27828
Sissie Margiotta;18;Female;33258
Bealle Ellaman;67;Male;15600
Jada Drewry;42;Male;84550
Rickie Hogsden;52;Male;24855
Gorden Phateplace;39;Male;55710
Wakefield Totterdell;57;Male;31820
Ashleigh Keavy;64;Female;82671
Neille Keats;28;Female;79817
Ethelbert Trew;47;Male;23887
Sally Bonnick;23;Female;89020
Bevan Sheerin;36;Male;15146
Jabez Mournian;80;Male;67692
Laurens Leroux;55;Female;30979
Leonardo Brideau;55;Female;75123
Kassandra Oliveras;50;Female;95506
Caitlin Burnall;22;Female;56182
Hollyanne Real;80;Female;38699
Josephine Van der Merwe;31;Male;42597
Myrwyn Haverty;54;Male;70468
Janos Gavini;38;Female;60024
Jandy Gavahan;82;Female;14184
Dione Corpe;43;Male;39718
Delbert Longega;57;Male;50248
Marlo Berthomier;29;Female;94907
Riki Radborn;55;Male;81052
Candie Hulles;66;Male;47444
Lou Tring;40;Female;46410
Hoebart Murdy;19;Male;66945
Yorgo Thirwell;57;Male;68668
Tandy Buckland;54;Male;35744
Birk Thew;71;Female;52207
Lidia Rignold;36;Male;87233
Marijn Kures;62;Female;52417
Rianon Bowmer;84;Male;66748
Jeff Wreath;70;Female;81349
Dosi Battill;51;Female;24371
Wernher Tassaker;80;Male;95802
Danny Sweett;48;Female;62104
Carry Sutherel;30;Female;28957
Dalt Cudihy;57;Female;15961
Kathryn Hove;22;Female;67210
Anastasie Cuttelar;76;Female;78807
Teddi MacKnight;33;Female;53675
Ezekiel Bradshaw;23;Female;99205
Rebe McNeice;19;Female;60712
Rebecca Blanch;53;Male;44079
Kizzie Derwin;39;Male;68381
Cornell Beynon;65;Male;15003
Manda Massingham;23;Male;70016
Erhard Renforth;62;Male;72842
Henryetta Duggen;72;Female;63095
Jed Wandless;66;Male;90682
Therine McGiffin;49;Male;76392
Starlin Phalp;65;Male;41054
Garek Bruhnke;28;Male;64299
Odella Kynder;74;Female;63957
Philippine McKinn;42;Female;92446
Lewie Woollett;29;Female;41120
Hatti Barrasse;58;Female;37828
Konstantin Iglesias;41;Female;55338
Collete Poole;55;Female;66786
Kelley Mugleston;50;Female;60107
Dalt Scargle;53;Male;31523
Carlie Roumier;23;Male;22682
Riordan Blakely;77;Female;80883
Mehetabel Estoile;22;Male;94087
Hettie Rosenstock;68;Female;31335
Sherlock Colclough;68;Male;11388
Bethina Potteril;76;Female;84688
Eveleen Badby;39;Female;40881
Killie Spikins;77;Male;72413
Lita Malletratt;23;Male;87239
Monica Segebrecht;18;Male;34908
Tandie Filkin;52;Male;79288
Julietta Insull;69;Male;26395
Emelyne Brabin;25;Female;29048
Aviva Noonan;62;Female;67973
Kiley Brothers;30;Male;76651
Daile Tippett;73;Female;67127
Lynsey Petkens;63;Female;78470
Kristyn Oran;30;Male;51574
Vick Henrichsen;25;Male;72536
Flint Brazer;36;Female;33781
Joyce Cakes;50;Female;95715
Una Alcock;25;Female;99469
Mirna Ervin;36;Male;70027
Sholom Eccleshare;38;Female;22016
Shamus Tabourel;69;Female;81387
Rosco Pennino;47;Male;12878
Jedediah Euesden;57;Male;16824
Rafaela Antunes;45;Male;34585
Cyrille Ravillas;50;Male;55249
Junie Durand;48;Female;22317
Sheffy Lenton;71;Male;95125
Dukie Haimes;70;Female;98516
Ronda Finby;44;Female;50160
Louise Lightning;34;Female;93213
Charlie Shubotham;35;Female;67291
Clair Pheasey;21;Male;39540
Lavinie Sapson;53;Male;66312
Martina Paulig;39;Female;34519
Ado Beddall;65;Male;79718
Debi Kells;82;Male;96158
Art Dadge;80;Female;96903
Chas Tennick;49;Female;66677
Tammara Trotter;44;Male;29617
Dion Ludmann;33;Male;33088
Jo McCartney;49;Female;10228
Margarete Cudmore;73;Male;69741
Kinna Castro;64;Female;48804
Codie Tennet;52;Male;99910
Arman Goodale;30;Male;71195
Quintana Maskew;83;Female;47707
Upton Vettore;33;Female;70405
Lin Circuitt;34;Female;97412
Jules Cleal;20;Female;59472
Maren Dorro;52;Female;33395
Patsy Gansbuhler;69;Male;56776
Susanne Jackalin;25;Female;52948
Marlowe McQuilkin;51;Male;27407
Bil Troy;56;Female;43869
Beverley Oxteby;51;Female;92272
Bendicty Paxton;51;Female;66916
Sula Stenbridge;74;Female;59299
Burch Climo;45;Male;88870
Jordanna Wrought;24;Male;85124
Hertha Dorracott;37;Female;31565
Norman Wakeling;18;Male;62960
Cari Kohnemann;61;Male;57755
Marika Goucher;34;Female;86337
Earle McDavid;53;Female;39734
Tracey Biddiss;82;Female;82140
Tammi Vassall;27;Female;53455
Inglebert Altamirano;40;Male;27121
Araldo Girault;74;Male;46490
Tilda Chorlton;46;Male;68179
Harvey Brookson;19;Male;31121
Godart Giraldo;45;Male;66979
Giselle Shires;28;Female;83503
Bradford Butteris;33;Male;55354
Sawyere Slader;38;Female;20070
Batsheva Ramard;22;Female;93431
Berkeley Geroldini;37;Male;70853
Lucienne Wiffen;68;Female;94834
Bobby Sjostrom;62;Male;82873
Fraze Chessun;71;Female;16787
Astra McRae;34;Female;35234
Angelina Goodie;46;Female;23249
Kelly Dalligan;70;Female;53164
Gothart Mulgrew;57;Male;66787
Tammi Torfin;72;Male;19758
Terrie Roots;40;Male;28620
Evered Dommersen;49;Male;46693
Roley Fantin;77;Female;32764
Demetrius Seymark;76;Male;84464
Marley Ockenden;26;Female;61604
Freda Oates;80;Female;56153
Phelia Roughley;62;Male;70821
Sheffield McLane;27;Female;43925
Carlita Wale;83;Male;37039
Josephina Emmert;70;Male;15281
Tierney Zincke;18;Female;88503
Siffre FitzGilbert;63;Female;82712
Tanner Taillard;47;Female;41696
Elonore Yair;70;Female;44622
Joseph Dimblebee;35;Male;95182
Chrissy Tander;41;Female;15923
Ryun Darnbrook;63;Male;39746
Drusie Huxter;32;Female;44541
Clarinda Keyse;53;Female;94259
Tobit Blumson;23;Female;87499
Bondon Razzell;24;Male;92709
Page Manville;73;Female;49599
Trever Screase;55;Male;16833
Damaris Erdis;75;Female;38247
Opal Batho;78;Female;88495
Kattie Rutigliano;63;Male;19847
Bertine Lumsdon;63;Female;38618
Mitchell Grishukhin;33;Female;84637
Danny Hellens;47;Male;32084
Lyndell Toten;84;Female;78718
Harriet Rustidge;24;Male;57299
Garrett Housam;79;Male;75404
Holly LLelweln;44;Male;82550
Del Emeline;19;Female;40233
Bambie Liepina;48;Male;65715
Jerrylee Blaza;77;Male;40975
Keelby Calven;58;Male;37549
Alexei Tumini;48;Female;91644
Aprilette McCarty;74;Female;98573
Diane Follen;69;Male;91939
Wiatt Arkwright;41;Female;24555
Dar Mourant;28;Female;57690
Nelson Menendes;27;Male;69146
Thurston Grocott;45;Male;41216
Davide Muslim;66;Male;64868
Orion Konzelmann;56;Female;47359
Herve Asch;27;Male;53399
Tera O'Corren;18;Female;95861
Rafaello Kewish;34;Female;49616
Paulo Klishin;37;Male;86400
Caspar Kubyszek;46;Female;25370
Ellsworth Headley;32;Female;55819
Lucinda Ghioni;31;Male;94627
Sarette Matiebe;46;Male;23307
Agace Purcell;78;Female;70460
Jillana Chalcroft;69;Female;55510
Denver Stanyforth;65;Female;93563
Moreen Lexa;79;Male;99000
Aloin Belvin;29;Male;11935
Evvy Guile;76;Male;93517
Christian Wewell;31;Male;25731
Buiron Gusney;24;Female;23628
Tabby Drewery;76;Male;57964
Sasha Leopold;23;Female;15136
Ardenia Pattingson;75;Female;97523
Margaretta Culligan;24;Male;75888
Daniella Fawcitt;80;Female;38139
Iago Thewless;28;Female;48148
Deloris Di Biagi;68;Female;55035
Andrea Macknish;72;Male;39963
Evvie Maven;75;Female;13571
Lil Beddon;19;Male;51215
Merridie Gladdin;73;Male;48165
Dillie Lealle;23;Male;28605
Lucita Dearan;54;Female;70529
Lynna Edger;46;Male;71214
Abran Curedell;19;Female;42373
Kylynn Krochmann;49;Male;50316
Marcus Scotchmur;53;Female;68712
Pavla Curzey;79;Female;71719
Corrine Goodwell;67;Female;32739
Lizzy Manifield;30;Female;19629
Linus McMoyer;59;Male;80255
Whitney Gronno;59;Male;62276
Aveline Northeast;66;Female;65516
Nataline Bunting;48;Male;60130
Trescha Abbie;44;Female;67333
Fielding Hellwig;48;Female;35844
Gigi Trulock;83;Female;79408
Vevay Keyser;21;Male;65326
Mabel Garfitt;22;Male;78582
Cam Kendal;81;Female;62993
Gay Fewell;25;Male;68200
Hinda Limpkin;60;Male;76265
Conny Westrey;34;Male;10695
Mirella Truder;39;Male;20574
Derby Lindeboom;57;Male;21590
Merrielle Tinston;61;Male;62986
Phylys Gorrick;52;Male;16638
Dewie Cordeau];34;Female;73875
Belicia Tylor;54;Male;89421
Ynez Sieb;81;Male;41594
Abel Graser;53;Female;84162
Ignatius Crighten;46;Female;42023
Kenyon Praill;45;Male;25990
Florance Heather;66;Female;57455
Steffen Trathen;34;Female;75735
Fonsie De Bruin;74;Male;17228
Tyrone Davie;67;Female;50211
Katalin Muzzollo;55;Male;59832
Imogene Ozanne;60;Male;60954
Xever Bruin;78;Male;78741
Shawn Kohring;53;Male;77548
Lillis Gisburn;52;Male;19151
Minerva Frantsev;69;Male;40903
Mariya Basile;64;Male;94855
Laurie Jaimez;25;Female;52337
Nicol A'field;27;Female;71944
Ian Boschmann;49;Female;21791
Farrel Dunsmore;41;Male;33913
Kort Stollsteiner;53;Female;12517
Chiquita Dennes;20;Female;60501
Elianora Gerritzen;74;Female;14466
Valma Biesty;61;Female;42500
Phillie Bondley;71;Male;57189
Darrel McCullough;23;Female;25490
Galina Hanwell;51;Female;98781
Tiffani Pincott;64;Male;86667
Gelya Dory;81;Male;90243
Willyt Pogson;28;Male;20740
Jesse Kittiman;28;Female;23851
Riley Baile;43;Female;97545
Ranee Coan;41;Female;71624
Zorina Cammock;71;Female;42112
Maurene Marty;41;Female;16316
Bradan Pettecrew;27;Female;32126
Rand Cornhill;40;Female;49762
Mitch Plumridege;51;Female;23777
Dacia Brotherick;76;Female;83842
Alonzo Kingscott;45;Female;36479
Christophorus Choulerton;48;Male;88563
Codie Seedull;26;Male;18330
Claudius Guierre;68;Male;84763
Tatiana Korejs;59;Female;47615
Annabelle Copelli;83;Female;14587
Pall Irce;26;Female;96604
Boothe Ropkes;53;Male;30408
Rosabelle Quadrio;66;Male;73963
Alyssa Beri;35;Male;60315
Vittorio Riding;66;Female;20162
Humphrey Sleath;50;Female;89832
Hayward Weighell;36;Female;76528
Teresina McKie;58;Female;49599
Hastie McAulay;36;Male;15164
Kliment Cottisford;21;Female;62105
Gwyneth Demogeot;62;Male;54744
Peter Lackington;84;Female;60223
Nessi Bramont;56;Female;87448
Doy Seys;44;Female;38773
Daile Beaze;83;Female;77847
Jolie Brimblecomb;46;Male;87590
Patty Blackney;58;Female;96979
Noel Whetnall;31;Female;94901
Jobie Elcoux;78;Male;63273
Tabatha Mooring;34;Female;77377
Emelina Milkins;37;Male;68891
Jocelyn O' Borne;82;Male;64482
Marney Edmundson;80;Female;45361
Torre Gammade;79;Male;62319
Thomasin Bardill;35;Female;93008
Tremayne Cowsby;38;Male;15989
Davida Dignall;37;Female;39765
Selma Huttley;45;Female;35531
Anderea Chafney;63;Female;24197
Conant Capozzi;74;Male;88536
Virgina Seifert;57;Male;41909
Ronny Madgwick;81;Male;96508
Germayne Pervew;52;Male;25925
Clint Salvatore;63;Male;40964
Alta Aldersey;22;Male;45119
Layton Grabbam;83;Male;49214
Babb Popley;39;Male;43380
Whittaker Lawey;59;Male;53074
Broderic Lehenmann;30;Female;80906
Christina Mathivet;73;Male;96910
Koressa Lindsey;26;Female;72473
Garrot Uren;24;Male;50483
Sherline Brinsford;57;Male;41024
Viola Cassels;50;Female;79629
Abelard Thwaites;66;Male;27667
Errol Northing;50;Male;31264
Gerhardt Braizier;63;Female;85384
Gun Burds;79;Male;28293
Hal Kent;47;Female;66784
Cort MacQuaker;44;Male;30392
Judi Sebrook;51;Male;11640
Clement Grix;24;Female;92484
Glendon Bramhill;21;Female;32965
Maridel Larvent;23;Female;25471
Fidole Hablet;47;Male;67823
Haroun Ellcome;67;Female;57393
Cam Enticott;80;Male;92597
Halimeda Abbati;37;Male;30622
Nealson Harryman;64;Female;25508
Morry Pellew;45;Male;96597
Waylin Bunford;18;Male;44281
Terencio Blaksley;82;Female;10307
Giordano Woollends;37;Male;76822
Sula Dufall;51;Male;75830
Madeline Yonnie;25;Male;23213
Channa Nisot;67;Male;84673
Dominica Sword;74;Male;62335
Jackie Rizzardi;62;Male;24612
Redford McQuarrie;60;Male;43961
Naomi Orniz;53;Male;27731
Carola Tyce;35;Female;59640
Farlay Milius;19;Female;33535
Phillie Cheltnam;59;Female;77901
Elisabetta Parrin;18;Male;97575
Joshuah McLenahan;69;Female;10902
Saxon Eales;52;Male;52700
Ogden Drinkhall;28;Female;72625
Stacy Angus;20;Female;66301
Ginnie Grevel;58;Female;43563
Hillery Peele;37;Female;22718
Kellen Birnie;24;Male;30287
Elle Kembery;34;Female;68692
Raven Lockey;28;Female;96651
Amargo Dufaur;59;Male;23802
Dorree Corkell;57;Male;77587
Helenka Tranmer;60;Male;50743
Lara Berryman;23;Male;78004
Eirena Canario;57;Female;61120
Tye Lufkin;75;Female;24350
Davey Allmann;43;Male;22855
Cassie Davidzon;22;Male;27964
Garvy Dive;79;Female;88073
Nappie Coulthurst;25;Male;96454
Bing Sheryn;46;Female;76304
Iona Coronas;75;Female;86256
Pollyanna Ashborne;68;Male;22954
Cassandra Midden;28;Male;30438
Esme Hedditch;66;Female;30135
Casper Lewry;84;Female;78263
Dion Coppen;29;Male;27209
Monica MacClinton;83;Female;89205
Leora Leamon;39;Female;58767
Zsazsa Allenby;83;Male;72163
Max Pirson;42;Female;81563
Patsy Mulbry;30;Male;31895
Fletcher Samper;59;Male;51529
Shadow Olivello;40;Female;99249
Mariette Baumaier;33;Male;52594
Queenie Tuxwell;54;Female;93584
Cordie Ricardet;66;Female;15852
Delia Woolcocks;50;Female;19993
Orland Dummigan;74;Male;20443
Bernie Ashmore;28;Male;54407
Godfree Volkes;58;Male;95580
Korney Nolder;69;Male;78279
Grove Vlasov;39;Female;60465
Galvin Haddleton;18;Male;45036
Rachael Rathjen;38;Male;34712
Lesley Spensley;54;Female;58044
Finley Capineer;60;Male;66330
Constantina Vanacci;51;Female;33523
Ursala Dwane;35;Female;13987
Kassia Rodgers;80;Female;72964
Vivien Goodday;76;Female;89983
Dominica Matityahu;45;Female;75976
Grace Childs;38;Female;49272
Arabelle Tugwell;58;Female;94374
Ellis Kilmister;27;Female;12889
Cristine Tolotti;36;Male;96023
Brigitta Peake;49;Male;79083
Tasha Cardoso;32;Female;21949
Tabbie Penbarthy;84;Male;45542
Land Dubique;78;Female;43289
Weylin Linkleter;31;Female;20188
Celie Sizey;58;Male;43012
Paule Fulop;28;Female;47628
Lesya Heake;40;Male;75305
Brnaba Cuddy;81;Male;35656
Hildegarde Kirsop;68;Female;87557
Myrtia Delepine;80;Male;61724
Jimmy Edwin;26;Female;32908
Kellen Brambill;33;Female;93832
Ema Turville;46;Female;23375
Harland Andrew;53;Male;96379
Clementine Byars;67;Male;87571
Elsi Norfolk;20;Male;25603
Marietta Kleanthous;62;Female;67302
Brant Jeaves;25;Female;26881
Lefty Flori;47;Female;79779
Tammy Vamplers;69;Female;63377
Hayley Cowderay;44;Male;82065
Kania Vasiltsov;53;Male;45926
Jim Roake;51;Female;20395
Lib Brickhill;81;Female;99177
Wain Tremain;30;Male;43910
Kathye Barneveld;23;Female;44989
Boris McGrady;40;Male;61213
Delcine Ackers;34;Male;67828
Rebekkah Emmet;21;Male;88698
Avis Witcher;55;Female;34250
Ertha Osan;39;Male;46887
Ellyn Markushkin;71;Female;14346
Husain Moriarty;43;Female;12641
Jessika Sarath;48;Female;18980
Ernestine Fairy;24;Female;73049
Colette Beed;19;Female;47670
Josy Goodings;56;Female;58961
Korie Burehill;31;Male;55291
Red Lambshine;76;Female;43414
Wadsworth Thornewell;55;Female;42926
Lilyan Heditch;51;Male;97684
Reginauld Appleford;52;Female;99051
Wye McKeown;20;Male;51094
Collen Pietz;51;Female;14902
Ailbert O'Sirin;81;Female;52051
Janos Boydon;83;Male;71055
Roger Blizard;62;Female;14490
Joli Kantor;73;Male;76810
Ileane Choudhury;79;Female;70850
Mahala Wooder;52;Female;11659
Lauraine Ficken;46;Male;62657
Marieann Welchman;43;Female;11903
Claudia Covington;22;Male;92348
Christan Dureden;55;Female;69549
Victoria Hookes;75;Male;45091
Tani Stappard;20;Male;65747
Ingmar Izod;72;Male;21433
Mervin Sondland;58;Female;48385
Phoebe Manners;74;Female;98626
Ilise Tremouille;32;Male;15711
Ariel Baldry;64;Male;37430
Sherman Ramble;74;Male;59546
Rodrique Adshede;21;Male;81522
Dian MacVaugh;46;Male;72433
Piper Cowans;65;Female;47704
Ailyn Mander;59;Female;62734
Cindee Gabriely;23;Female;24528
Skipton Grigorian;41;Female;48170
Bradley Slessor;69;Female;75559
Meredeth Sives;49;Female;19519
Tyrus Talby;57;Female;39370
Ana Cowser;23;Female;58699
Doloritas Kunzel;81;Female;10641
Giralda MacCrann;46;Male;65278
Monro Connechie;46;Female;29961
Corina Woolgar;21;Female;72670
Randell Rodbourne;42;Male;21052
Ferd Dandy;44;Female;96276
Debor Dunlop;63;Male;57620
Sindee Cockton;85;Female;15783
Fidelity Emps;24;Female;13055
Beck Shipston;49;Female;47002
Lorrie Crehan;24;Female;84724
Raoul Bachelar;85;Female;26433
Felicio Dunderdale;83;Female;58785
Barbette Pairpoint;23;Female;70864
Dale Kelwick;64;Male;71544
Mahalia Corah;80;Female;12178
Monro Spowage;69;Male;76676
Nomi Tosney;33;Male;86385
Fred Birch;36;Male;50169
Dru Scrase;49;Male;84068
Leslie Tolworth;47;Female;97993
Cam Nann;34;Male;85127
Charlotte Kent;31;Female;18081
Shirline Trobridge;56;Male;37789
Ulrikaumeko Toner;68;Male;87180
Bruce Eshmade;49;Male;37527
Arnuad Gummow;44;Female;33688
Margalo Kalvin;35;Female;98030
Tracey Bumphries;42;Female;79709
Nigel Blackway;63;Female;89589
Burg Kobke;25;Female;61710
Stefania Schonfeld;67;Male;82920
Jimmy Vamplus;40;Male;41621
Quintin Hue;74;Female;68114
Caria Brunet;82;Female;73111
Esmaria Crackel;70;Male;47365
Payton Ropartz;22;Male;70338
Lorettalorna Daughtrey;85;Male;91759
Nanni Cricket;58;Male;25772
Mirabelle Juckes;27;Female;31855
Tobi Durbyn;41;Male;43905
Maxine Dries;55;Male;72665
Ariel Whitlock;39;Male;22096
Madalyn Lampett;46;Male;92561
Lacy Arkell;80;Male;48622
Georgetta Estabrook;62;Male;60716
Kassi Prowting;73;Female;54213
Wheeler Heckle;35;Female;46469
Cleopatra Beddie;57;Male;12210
Andros Fuster;65;Male;68424
Vanny Moncaster;85;Male;34696
Lexy Bambra;55;Female;27197
Weider Marwood;37;Male;57662
Noellyn Whittier;19;Male;24133
Allyn Conkling;59;Male;88757
Bobby Stode;44;Female;63174
Penrod Stapleton;39;Female;26313
Darcy Merrill;68;Female;99988
Carmelle Orrum;18;Female;80377
Reggi Londer;37;Female;16619
Gusella Paddock;30;Male;22994
Gilberte Siveyer;32;Male;28229
Edie Petris;57;Female;41619
Reinold McNeish;65;Female;64873
Fletch Turmel;46;Female;97716
Gus Choke;28;Female;82439
Liv Primmer;21;Male;64108
Irena Grece;32;Male;27709
Druci Elner;43;Male;88816
Delano Krolle;82;Male;36986
Mendie Trayling;53;Female;95538
Mignon Pummery;45;Female;41834
Jennilee Condliffe;83;Female;51906
Karla Cattach;23;Male;22108
Osbert Spiniello;47;Female;64826
Rosemary Clohessy;48;Female;12520
Sadye Panks;24;Female;25080
Agnesse Pennicott;62;Male;80636
Lorna Pepin;54;Male;34188
Lucien Assante;26;Female;73880
Rainer Barizeret;73;Male;58162
Modesta Rominov;54;Male;38621
Liam Saill;57;Male;23198
Alphard Scyone;59;Male;75979
Pacorro Collacombe;62;Female;54687
Averill Franey;80;Female;28875
Rosa Biasini;52;Female;43321
Carolynn Scamaden;57;Male;84508
Abbey Solan;30;Male;24127
Mackenzie Wandrey;39;Female;80674
Welsh Ybarra;44;Female;24527
Frasier Gaye;76;Female;66567
Kai Farland;53;Male;77115
Carmencita Banane;74;Female;14855
Karlotte Bunhill;56;Female;70398
Marietta Harefoot;76;Female;62188
Patrice Wagenen;26;Male;62715
Daffie Button;36;Female;52123
Marcos Borg;20;Female;99274
Gaven McHaffy;25;Female;84363
Laina Willets;18;Male;83128
Giacopo Linforth;19;Female;57873
Pansie Westraw;40;Male;34107
Logan Buncom;64;Female;50966
Bradly Hill;48;Male;57368
Lucita Barnaby;50;Male;31389
Hieronymus Stopper;82;Female;44786
Cherise Noquet;46;Female;36368
Teresina Sills;82;Female;50855
Ina Moger;32;Female;30361
Juliet Gogarty;83;Male;65370
Milly Grenshields;60;Male;79352
Sally Roeby;47;Male;52013
Ruttger Stebbings;29;Male;97085
Holli Naulls;66;Female;87677
Prentiss Anthoine;63;Female;80215
Catharine Treslove;66;Male;85800
Darrin Couper;25;Male;80092
Michelina Woolnough;28;Female;66629
Hagen Yaakov;84;Female;75036
Eb McCanny;33;Male;92472
Delia Cowen;69;Male;61682
Britt Arnold;84;Male;88140
Sybil Abramamov;42;Female;66599
Leora Clethro;53;Male;69778
Herbert Vizard;46;Female;50034
Forbes Hardiman;29;Male;54697
Brandon Worledge;62;Male;28810
Lonnard Bullier;57;Female;66002
Bernetta Castelletti;21;Male;87947
Audi Schleicher;20;Male;88995
Ellen Balls;40;Female;80097
Arlen Gurney;38;Female;22743
Hedwiga Clynman;72;Female;97481
Ingamar Ginni;66;Female;56092
Xaviera Goodhay;34;Female;40563
Malinda Rayer;61;Female;18196
Lilyan McCourtie;84;Male;41764
Amandi Varnes;77;Male;94698
Jilleen Adamec;28;Female;38025
Rand Edington;41;Male;95644
Johanna D'Ambrosio;40;Male;58878
Bree Steffens;79;Male;51356
Hy Oxberry;38;Male;19006
Huey Spellman;19;Male;82363
Madge Alfonsetto;75;Male;97934
Phaedra Elis;53;Female;45380
Mendel Bownass;31;Male;47778
Marcello Hallewell;29;Female;55082
Fay McCreedy;32;Female;49197
Franciska Blankman;28;Male;62496
Stavro Helgass;37;Male;71221
Tori Kimmince;59;Male;83062
Raquel Mohammad;37;Female;15082
Bea Francom;81;Female;84116
Eliza Studdal;27;Male;81749
Forbes Vasentsov;31;Female;28439
Roosevelt Wordington;38;Male;54278
Adria Hains;52;Female;94750
Lynea Guiot;67;Male;17735
Gilburt Ubsdell;21;Male;49216
Gale Magnus;37;Male;89601
Niki O'Gaven;62;Female;35260
Neal Carver;46;Male;71331
Tonya Pothecary;75;Female;64138
Birdie Vobes;72;Male;61383
Baldwin Fullalove;40;Female;82284
Roanna Fullstone;55;Male;93228
Bernadine Blanpein;45;Male;56837
Alidia Lishman;48;Male;65838
Jo-anne Vasyukhichev;61;Female;55783
Patrica Engeham;34;Male;61905
Kettie Smidmore;23;Female;15221
Stefania Odhams;51;Male;42635
Christie Bleas;47;Male;86686
Penelopa Timmermann;60;Female;70424
Rivkah Levay;72;Male;30769
Ricki Suston;79;Female;83806
Zacharia Tissier;35;Female;97723
Raf Ballay;49;Male;16646
Eleonora Wallice;72;Female;49622
Sara Aylin;36;Male;86095
Alister Povele;44;Male;67116
Rolf Sargent;53;Female;73985
Eziechiele Reyna;54;Female;38967
Justen Tunkin;60;Male;87354
Druci Giroldo;49;Female;77607
Dian Dipple;27;Female;78481
Kiley Donett;37;Female;78088
Vonnie Crandon;41;Male;18957
Rees Manoelli;59;Female;26652
Joby Haselgrove;42;Female;18191
Marcie Charlin;39;Male;85024
Michelina Yurukhin;40;Male;33865
Bourke Acott;85;Male;98657
Adelbert Martellini;77;Female;20045
Benny Abdee;30;Female;30958
Wit Tremblay;44;Male;22377
Woody Thornton-Dewhirst;78;Male;11281
Jody Carnson;18;Male;36633
Rustin Jeskins;20;Male;92600
Barclay Ost;78;Female;38675
Frederic Dosdale;58;Male;76450
Charmian Adanez;50;Male;13310
Maximilien Kuhndel;18;Male;22815
Auria Andreazzi;32;Male;17376
Amalle Castagne;44;Female;83331
Dulce Raywood;66;Male;33893
Basia Chettle;81;Male;28500
Aloin Crate;27;Male;72151
Bryna Upsale;81;Male;66585
Courtney Schrei;54;Female;18964
Gusti Primmer;18;Female;44665
Johnna Mardle;50;Female;72233
Kameko Bugdall;78;Male;18178
Artemis Titchmarsh;37;Male;62394
Kalle Cowdry;21;Female;81328
Mandi Crenage;40;Male;75894
Arden Devonside;80;Male;49799
Katrinka Frankom;70;Female;14951
Doll Folomin;59;Female;81979
Charity Willows;19;Female;85027
Tildi Newcome;77;Female;82185
Ashlin Liddell;31;Female;63280
Tiffy Rewcassell;77;Female;36423
Jamill Vick;58;Female;68798
Rodney Emor;27;Male;75930
Giorgia Lawler;78;Male;35802
Marcelo Hampshaw;53;Male;41475
Vanni McNally;66;Female;23958
Mead Loudon;75;Male;79536
Zed Blance;28;Female;65820
June Lobe;40;Male;56945
Peterus Stribbling;73;Male;31565
Tobey Duxbury;70;Female;63335
Keane Stayte;29;Male;75202
Tomlin Gerrish;76;Female;61595
Marney De Maria;78;Female;64446
Bertie Beall;25;Female;88903
Marlo Murcott;60;Female;35276
Tammy Dibden;35;Male;70699
Tamra Lillistone;52;Male;22753
Trudi Oldknow;56;Female;62400
Orson Cuttelar;40;Female;92372
Wendy Elmes;63;Female;82523
Katherine Imason;23;Male;76122
Ruthy Keling;57;Female;74271
Nola Enrdigo;60;Male;73608
Angeli Pachmann;67;Male;33582
Analiese Cane;55;Male;35014
Stu Boman;33;Male;50755
Xever Huddart;38;Male;65474
Afton Cowburn;22;Female;27024
Tory Gianelli;33;Female;71315
Tracey Menichi;74;Male;35052
Nananne Dumingos;74;Female;39250
Cynde Proppers;74;Female;17231
Robbert Rosettini;46;Female;37872
Roanna Phipson;19;Female;63366
Antonie Lightbown;69;Male;79965
Petey Peirce;80;Male;61754
Miguelita Janeczek;58;Female;44417
Mahmoud Muckley;36;Female;72956
Mitchell Ambroisin;43;Female;14221
Elli Mudle;21;Male;62083
Harriott Pearn;26;Male;68657
Hansiain Mainds;59;Male;57116
Warde Gambie;25;Female;55664
Rogerio Boldero;32;Male;75903
Reta Childes;60;Male;58126
Jane Lyddiatt;27;Female;19448
Adora Antonacci;28;Female;74230
Annnora Simonato;56;Female;78591
Gene Tomasek;56;Male;88785
Jannel Chesworth;66;Male;75930
Decca Gurner;26;Male;97504
Tallie Coverlyn;62;Female;27291
Tybie Antwis;43;Male;45663
Janetta Hurdis;45;Female;73244
Bren Regus;69;Female;58637
Hewett O'Gleasane;60;Male;66547
Dorothy Loblie;71;Male;37828
Iosep Lacheze;35;Male;83461
Roxi Provis;25;Female;76349
Pedro Coggins;29;Female;67437
Pier Bolingbroke;58;Female;51977
Fayina Adamik;66;Male;27925
Andromache Fields;67;Male;10639
Diego Jachimak;41;Male;56765
Kanya Sooper;47;Female;23876
Lesley Teck;79;Female;78128
Taddeusz Rubury;28;Female;38754
Drake Calltone;18;Female;32384
Jesselyn Hullett;35;Male;18316
Glen Werndley;51;Female;15503
Nealy Lodemann;73;Male;92918
Samara Looby;35;Female;19097
Gretta Banker;59;Male;32049
Heywood Scneider;20;Male;84431
Selia Gutridge;20;Male;49953
Tibold Bernt;42;Female;25749
Thedrick McConnal;23;Female;84823
Anthiathia Koppeck;49;Male;62980
Pail Manvell;56;Male;86723
Brittani Turri;60;Male;14267
Elmo Wickwarth;75;Female;59160
Caroljean Mauro;19;Male;52384
Harper Dalziel;70;Female;33086
Storm Luckie;36;Female;20754
Giraud Peyzer;60;Female;25143
Mordecai Bothe;33;Male;11282
Julietta Escalera;81;Female;16640
Joycelin Dhillon;68;Male;86985
Darb Physick;61;Female;80160
Johannes Myton;81;Female;68210
Mikel Dundin;25;Female;28798
Tammi Oliphard;57;Female;76146
Susannah Hallihane;73;Female;62236
Valma Vereker;71;Male;27446
Trev Huggin;34;Male;80092
Mano Perone;58;Male;95850
Efren Filipson;51;Male;63790
Aurelea Gascoyen;54;Male;70969
Bartholemy Phipson;19;Male;30015
Bibby Frayn;64;Male;26914
Juliana Bendson;31;Female;42100
Abrahan Carratt;43;Female;84122
Parry Karpf;38;Male;93094
Gayel Dregan;29;Female;37879
Mag Galiero;62;Male;56025
Federico Swindon;61;Male;62349
Casi Davidovicz;77;Female;82941
Eleanora Akitt;28;Male;44173
Jase Ellinor;43;Female;69262
Hertha Molines;77;Male;77306
Elizabeth Triggs;69;Female;22707
Bronson Borland;24;Male;23809
Kamila Vido;70;Female;42594
Morna Cromly;66;Male;62267
Duffie Chettle;72;Female;61194
Bonnee Schusterl;28;Male;21988
Micky Cornhill;59;Male;51018
Anna Conda;59;Female;51042
